<?xml version="1.0" encoding="UTF-8"?>
<kml xmlns="http://www.opengis.net/kml/2.2" xmlns:gx="http://www.google.com/kml/ext/2.2" xmlns:kml="http://www.opengis.net/kml/2.2" xmlns:atom="http://www.w3.org/2005/Atom">
<Document>
	<name>bog_hacienda_santa_barbara.kml</name>
	<StyleMap id="poly-FF0000-2-76-nodesc1">
		<Pair>
			<key>normal</key>
			<styleUrl>#poly-FF0000-2-76-nodesc-normal00</styleUrl>
		</Pair>
		<Pair>
			<key>highlight</key>
			<styleUrl>#poly-FF0000-2-76-nodesc-highlight0</styleUrl>
		</Pair>
	</StyleMap>
	<Style id="poly-FF0000-2-76-nodesc-normal00">
		<BalloonStyle>
			<text><![CDATA[<h3>$[name]</h3>]]></text>
		</BalloonStyle>
		<LineStyle>
			<color>ffff0000</color>
			<width>2</width>
		</LineStyle>
		<PolyStyle>
			<color>4c0000ff</color>
		</PolyStyle>
	</Style>
	<Style id="poly-FF0000-2-76-nodesc-highlight0">
		<BalloonStyle>
			<text><![CDATA[<h3>$[name]</h3>]]></text>
		</BalloonStyle>
		<LineStyle>
			<color>ffff0000</color>
			<width>3</width>
		</LineStyle>
		<PolyStyle>
			<color>4c0000ff</color>
		</PolyStyle>
	</Style>
	<Placemark>
		<name>HaciendaSantaBarbara</name>
		<styleUrl>#poly-FF0000-2-76-nodesc1</styleUrl>
		<Polygon>
			<tessellate>1</tessellate>
			<outerBoundaryIs>
				<LinearRing>
					<coordinates>
						-74.03307864828912,4.693364459383286,0 -74.03297203462967,4.693320685877632,0 -74.0329112743941,4.69347629516392,0 -74.03282106736245,4.693433342570906,0 -74.03290916751087,4.693208253855381,0 -74.03286624076596,4.693189712322562,0 -74.03291180161374,4.693047190080372,0 -74.03295416199414,4.693060425323839,0 -74.03298044922549,4.692990519433371,0 -74.03302132829437,4.692995297781302,0 -74.03316071535465,4.692606302870519,0 -74.03310999733618,4.692579174970603,0 -74.03315581092136,4.692453836307691,0 -74.0325232338986,4.692277368077893,0 -74.03257740991398,4.692127080854637,0 -74.03189671450387,4.691926346898344,0 -74.03167424054041,4.692641957196605,0 -74.03168530309574,4.692694421581763,0 -74.03165454741757,4.692763613842981,0 -74.03172603002521,4.692868281077644,0 -74.03172396984925,4.692909159962709,0 -74.03186382567156,4.692962607006086,0 -74.0318836547652,4.693050507082528,0 -74.03184668176206,4.693030469176419,0 -74.03180531761338,4.693027460651671,0 -74.03175274972701,4.693044892107404,0 -74.03172061075192,4.693084265329105,0 -74.03170083501956,4.693142444200701,0 -74.03172017376616,4.693201725263059,0 -74.03175646037167,4.693235389113405,0 -74.03179405576096,4.693250931737239,0 -74.03184683400613,4.69323718094029,0 -74.03189797652942,4.693201491219341,0 -74.03189988693897,4.693217979634482,0 -74.03193255036393,4.693276989439595,0 -74.03196904694546,4.693314334071374,0 -74.03201443351404,4.693338463054981,0 -74.03206337850875,4.69334637739346,0 -74.03214896971285,4.693334269114752,0 -74.03219436857174,4.693303756142027,0 -74.03223519511455,4.693263023312847,0 -74.03232097604482,4.693293701043272,0 -74.03225079295638,4.693489633184821,0 -74.03234758410954,4.693527263822904,0 -74.03233458632167,4.693567595126855,0 -74.03255331546994,4.693687829315759,0 -74.03256836096284,4.693661261143256,0 -74.03271723129753,4.693753409291906,0 -74.03270531993788,4.693826580633171,0 -74.03288823969356,4.693895844204146,0 -74.03307864828912,4.693364459383286,0 
					</coordinates>
				</LinearRing>
			</outerBoundaryIs>
		</Polygon>
	</Placemark>
</Document>
</kml>
