<?xml version="1.0" encoding="UTF-8"?>
<kml xmlns="http://www.opengis.net/kml/2.2" xmlns:gx="http://www.google.com/kml/ext/2.2" xmlns:kml="http://www.opengis.net/kml/2.2" xmlns:atom="http://www.w3.org/2005/Atom">
<Document>
	<name>bog_centro_mayor.kml</name>
	<StyleMap id="poly-FF0000-2-76-nodesc1">
		<Pair>
			<key>normal</key>
			<styleUrl>#poly-FF0000-2-76-nodesc-normal00</styleUrl>
		</Pair>
		<Pair>
			<key>highlight</key>
			<styleUrl>#poly-FF0000-2-76-nodesc-highlight0</styleUrl>
		</Pair>
	</StyleMap>
	<Style id="poly-FF0000-2-76-nodesc-normal00">
		<BalloonStyle>
			<text><![CDATA[<h3>$[name]</h3>]]></text>
		</BalloonStyle>
		<LineStyle>
			<color>ffff0000</color>
			<width>2</width>
		</LineStyle>
		<PolyStyle>
			<color>4c0000ff</color>
		</PolyStyle>
	</Style>
	<Style id="poly-FF0000-2-76-nodesc-highlight0">
		<BalloonStyle>
			<text><![CDATA[<h3>$[name]</h3>]]></text>
		</BalloonStyle>
		<LineStyle>
			<color>ffff0000</color>
			<width>3</width>
		</LineStyle>
		<PolyStyle>
			<color>4c0000ff</color>
		</PolyStyle>
	</Style>
	<Placemark>
		<name>Centro Mayor</name>
		<styleUrl>#poly-FF0000-2-76-nodesc1</styleUrl>
		<Polygon>
			<tessellate>1</tessellate>
			<outerBoundaryIs>
				<LinearRing>
					<coordinates>
						-74.12433770023255,4.590185306810444,0 -74.12408075069781,4.590178751364281,0 -74.12408074658606,4.590086808719608,0 -74.12271693816247,4.590106570012744,0 -74.12271698190649,4.591032561790673,0 -74.12312546583515,4.591025976439241,0 -74.12311228264308,4.590888063820707,0 -74.12350099965643,4.590868344714683,0 -74.12352078316877,4.59126894850727,0 -74.12296735498407,4.59128867521269,0 -74.12297395050109,4.591446289905352,0 -74.12313207298276,4.591439715489807,0 -74.12313208060382,4.591610465024873,0 -74.1230793730218,4.591610467425818,0 -74.12307938143866,4.591800918963909,0 -74.12321332019198,4.591779135308161,0 -74.1231782093347,4.591827183563908,0 -74.12315185754049,4.591873155854496,0 -74.12314527169347,4.591932261789792,0 -74.12317162753348,4.591978231671905,0 -74.12321774748894,4.591997931489308,0 -74.12322581124721,4.592983005296988,0 -74.12329224334997,4.592966661445121,0 -74.1232933798549,4.593073189273675,0 -74.12356980602104,4.59307860410763,0 -74.12353129944384,4.593339872334916,0 -74.12353134303787,4.593378066731728,0 -74.12352889980951,4.593429567569117,0 -74.12356184353538,4.593462402590005,0 -74.12362772804572,4.593462399633864,0 -74.12395056037863,4.593422981505313,0 -74.12460309350509,4.593386443963933,0 -74.12474776490359,4.593429514273235,0 -74.1250178914552,4.593396666304005,0 -74.12507059920851,4.593390096802215,0 -74.12509695001377,4.593324422541486,0 -74.12512329235233,4.593081430887041,0 -74.12513646603601,4.593009189889438,0 -74.12505740337706,4.592996058758704,0 -74.12505739814812,4.59288441456623,0 -74.12497577010478,4.592879349510291,0 -74.1249812980324,4.592826652814726,0 -74.12523528528074,4.592831868314415,0 -74.12522865964725,4.592004387420301,0 -74.12497170725509,4.591984697647017,0 -74.1249716974032,4.591754841449343,0 -74.12489922402,4.59175484492024,0 -74.12489262892103,4.591597229374858,0 -74.12474108902337,4.591485592061919,0 -74.12479379519405,4.59144618544699,0 -74.12493215244405,4.591419909369024,0 -74.12493214892649,4.59133453386346,0 -74.12489261663754,4.591301699056348,0 -74.12480823400671,4.591269990381442,0 -74.12455784245208,4.590619837674831,0 -74.12445901449671,4.590606707620343,0 -74.12444582080919,4.590206101540963,0 -74.12433770023255,4.590185306810444,0 
					</coordinates>
				</LinearRing>
			</outerBoundaryIs>
		</Polygon>
	</Placemark>
</Document>
</kml>
