<?xml version="1.0" encoding="UTF-8"?>
<kml xmlns="http://www.opengis.net/kml/2.2" xmlns:gx="http://www.google.com/kml/ext/2.2" xmlns:kml="http://www.opengis.net/kml/2.2" xmlns:atom="http://www.w3.org/2005/Atom">
<Document>
	<name>bog_plaza_de_las_americas.kml</name>
	<StyleMap id="poly-FF0000-2-76-nodesc1">
		<Pair>
			<key>normal</key>
			<styleUrl>#poly-FF0000-2-76-nodesc-normal00</styleUrl>
		</Pair>
		<Pair>
			<key>highlight</key>
			<styleUrl>#poly-FF0000-2-76-nodesc-highlight0</styleUrl>
		</Pair>
	</StyleMap>
	<Style id="poly-FF0000-2-76-nodesc-normal00">
		<BalloonStyle>
			<text><![CDATA[<h3>$[name]</h3>]]></text>
		</BalloonStyle>
		<LineStyle>
			<color>ffff0000</color>
			<width>2</width>
		</LineStyle>
		<PolyStyle>
			<color>4c0000ff</color>
		</PolyStyle>
	</Style>
	<Style id="poly-FF0000-2-76-nodesc-highlight0">
		<BalloonStyle>
			<text><![CDATA[<h3>$[name]</h3>]]></text>
		</BalloonStyle>
		<LineStyle>
			<color>ffff0000</color>
			<width>3</width>
		</LineStyle>
		<PolyStyle>
			<color>4c0000ff</color>
		</PolyStyle>
	</Style>
	<Placemark>
		<name>Plaza de las Américas</name>
		<styleUrl>#poly-FF0000-2-76-nodesc1</styleUrl>
		<Polygon>
			<tessellate>1</tessellate>
			<outerBoundaryIs>
				<LinearRing>
					<coordinates>
						-74.13416689568892,4.617954047648376,0 -74.13380821730002,4.617919505040571,0 -74.13356845055108,4.618115289752873,0 -74.1336950330315,4.618267371626366,0 -74.13403526384836,4.61830628622666,0 -74.13408764135666,4.61836711782376,0 -74.13410464376644,4.618347758107572,0 -74.13432127820754,4.618601033788413,0 -74.13430402660521,4.618617435754957,0 -74.13438261192226,4.618705047183553,0 -74.134381689668,4.618726252223516,0 -74.13437748602449,4.618749197240909,0 -74.13437901314474,4.618772114510188,0 -74.13438647912582,4.61879751583196,0 -74.13440485362219,4.618814768875295,0 -74.13442076569692,4.618835547341598,0 -74.13445320579467,4.61884615081726,0 -74.13447949570471,4.618850174047825,0 -74.13450526677195,4.61884728768434,0 -74.13458459740225,4.618926123341318,0 -74.13456928131198,4.618946264172143,0 -74.13467026316138,4.619064297645678,0 -74.13469084072391,4.619048470071257,0 -74.13487217719714,4.619270482817565,0 -74.1348257668319,4.619870789301963,0 -74.13469395617685,4.619861589755502,0 -74.13466005398954,4.619873058802184,0 -74.13465895964767,4.619895104045645,0 -74.13466351765719,4.619925037396315,0 -74.13467513578088,4.61993050076485,0 -74.13468987049191,4.619940731112175,0 -74.13467990920641,4.620090957274103,0 -74.13530348335677,4.620150211780773,0 -74.1353137984393,4.620018827663216,0 -74.13564501309908,4.620068891869118,0 -74.13566469740476,4.619486285983032,0 -74.1352883240786,4.619448145542973,0 -74.13531010071634,4.61932244518745,0 -74.13552759282882,4.61914910175235,0 -74.13550221621385,4.619125375430578,0 -74.13562204538854,4.619046865545156,0 -74.13564446093528,4.61906885358068,0 -74.13578582734286,4.618935301897812,0 -74.13581850189993,4.618973218477604,0 -74.1359373054103,4.618878339850953,0 -74.13589360293773,4.61885158672176,0 -74.13654177315016,4.61834313841422,0 -74.13655680131423,4.618362454250097,0 -74.13665685351887,4.618339601068846,0 -74.13664005871907,4.618305907637927,0 -74.13704684370597,4.618165858748601,0 -74.13706054899356,4.618196856337719,0 -74.1371281562145,4.618163375827358,0 -74.13708955261346,4.618064415761829,0 -74.13712374106099,4.618053450903176,0 -74.13714537881504,4.618028814701765,0 -74.13715446586491,4.617990507144688,0 -74.13712917201036,4.617960276763172,0 -74.13710329015059,4.617964890784499,0 -74.1370658196399,4.617970272064092,0 -74.1370459352155,4.617933882643158,0 -74.13703647416691,4.61792290721677,0 -74.13703010256387,4.617914627698986,0 -74.13702064142188,4.617903652277629,0 -74.13701137270606,4.617895564571782,0 -74.13700191156808,4.617884589150627,0 -74.13699554006728,4.617876309626783,0 -74.13698607893277,4.617865334205971,0 -74.13697951501101,4.617854166968369,0 -74.13697005387989,4.617843191545653,0 -74.13696059275094,4.617832216126435,0 -74.13695113162385,4.617821240707126,0 -74.13693915823185,4.617816232525265,0 -74.13692718484285,4.617811224350649,0 -74.1369152114563,4.617806216176174,0 -74.13690613518232,4.617801016189145,0 -74.13689435422262,4.617798895727,0 -74.13688257326579,4.617796775271855,0 -74.13687059979118,4.617791767104114,0 -74.13685881883852,4.617789646641815,0 -74.13684684546591,4.617784638474832,0 -74.13684588335154,4.617770199893947,0 -74.13684472881563,4.617752873591143,0 -74.13684376670382,4.617738435005347,0 -74.13684299701541,4.61772688413788,0 -74.13683643311227,4.617715716896367,0 -74.13682716442685,4.617707629181152,0 -74.13681808816565,4.617702429200985,0 -74.13680611479832,4.617697421020331,0 -74.13679723096095,4.617695108746887,0 -74.13677984813421,4.617696259641327,0 -74.13676845204059,4.617699914621952,0 -74.13675744079471,4.617709345041595,0 -74.13675241618066,4.617721279538364,0 -74.13674449456222,4.617733405838818,0 -74.13673946995181,4.617745340330521,0 -74.13673734254222,4.617757083001417,0 -74.13673521513363,4.617768825670458,0 -74.13673579240502,4.617777488822907,0 -74.13669059284933,4.617797884115576,0 -74.13663129259764,4.617825013869917,0 -74.13658763258168,4.617868510802251,0 -74.13654686975106,4.617911815885644,0 -74.13652483664448,4.617974184028314,0 -74.13651266017371,4.618009795549146,0 -74.13645975302271,4.617958189887946,0 -74.13637688058346,4.618024585953563,0 -74.13632687061867,4.61797278849809,0 -74.1362161816942,4.61805842880952,0 -74.13630412023912,4.618149939613562,0 -74.13618793769675,4.618245926980076,0 -74.13607498240332,4.618122885492633,0 -74.13544840634997,4.61805697954911,0 -74.13545658297529,4.618013004261397,0 -74.13527489002451,4.618001927093154,0 -74.13525490171672,4.617980153761447,0 -74.13523649031799,4.617970196423705,0 -74.13521898869486,4.617965640996266,0 -74.13519045088754,4.617967530360609,0 -74.13517327966164,4.617982905814174,0 -74.13515365449158,4.617989927311798,0 -74.13490808114466,4.617966129897686,0 -74.13488102821933,4.618022104483041,0 -74.13486847902755,4.618020382217907,0 -74.13486832712961,4.617831515316262,0 -74.13468692594202,4.617831735248582,0 -74.13469740962893,4.617864107279055,0 -74.13459168478669,4.617930854884445,0 -74.13452854694792,4.617856722834408,0 -74.1343656992625,4.617989322751854,0 -74.13425061622039,4.617878023352322,0 -74.13416689568892,4.617954047648376,0 
					</coordinates>
				</LinearRing>
			</outerBoundaryIs>
		</Polygon>
	</Placemark>
</Document>
</kml>
