<?xml version="1.0" encoding="UTF-8"?>
<kml xmlns="http://www.opengis.net/kml/2.2" xmlns:gx="http://www.google.com/kml/ext/2.2" xmlns:kml="http://www.opengis.net/kml/2.2" xmlns:atom="http://www.w3.org/2005/Atom">
<Document>
	<name>bog_hayuelos.kml</name>
	<StyleMap id="poly-FF0000-2-76-nodesc1">
		<Pair>
			<key>normal</key>
			<styleUrl>#poly-FF0000-2-76-nodesc-normal00</styleUrl>
		</Pair>
		<Pair>
			<key>highlight</key>
			<styleUrl>#poly-FF0000-2-76-nodesc-highlight0</styleUrl>
		</Pair>
	</StyleMap>
	<Style id="poly-FF0000-2-76-nodesc-normal00">
		<BalloonStyle>
			<text><![CDATA[<h3>$[name]</h3>]]></text>
		</BalloonStyle>
		<LineStyle>
			<color>ffff0000</color>
			<width>2</width>
		</LineStyle>
		<PolyStyle>
			<color>4c0000ff</color>
		</PolyStyle>
	</Style>
	<Style id="poly-FF0000-2-76-nodesc-highlight0">
		<BalloonStyle>
			<text><![CDATA[<h3>$[name]</h3>]]></text>
		</BalloonStyle>
		<LineStyle>
			<color>ffff0000</color>
			<width>3</width>
		</LineStyle>
		<PolyStyle>
			<color>4c0000ff</color>
		</PolyStyle>
	</Style>
	<Placemark>
		<name>Hayuelos</name>
		<styleUrl>#poly-FF0000-2-76-nodesc1</styleUrl>
		<Polygon>
			<tessellate>1</tessellate>
			<outerBoundaryIs>
				<LinearRing>
					<coordinates>
						-74.13151241267987,4.663974340197785,0 -74.13156021898352,4.663924873605144,0 -74.13147525042956,4.663837029305899,0 -74.1315559757615,4.66376299388044,0 -74.13147467960089,4.663671621053773,0 -74.13140123297076,4.663742193613893,0 -74.13130584150069,4.663632585722513,0 -74.13125069054628,4.663689109521605,0 -74.13119758533064,4.663634206924862,0 -74.13124912994621,4.663577617360907,0 -74.13112515182276,4.663453105708522,0 -74.13151519179161,4.663074189341835,0 -74.13156469078258,4.663129026271327,0 -74.13187664107774,4.66283987585069,0 -74.13190994727746,4.662878191256875,0 -74.13239318550697,4.662393916424265,0 -74.13234329016015,4.662360645839849,0 -74.13260042070257,4.662110046534375,0 -74.13200209807793,4.661491476710722,0 -74.13184425370532,4.661639613883364,0 -74.13160665476987,4.661415948680716,0 -74.13135333044249,4.661655830028466,0 -74.13148045269119,4.661805568253645,0 -74.13136320236517,4.661904106735347,0 -74.13122499717323,4.661768548798155,0 -74.13101233241028,4.661955237089749,0 -74.13111801463937,4.66209379749012,0 -74.13084606428656,4.662365699252363,0 -74.13117035965369,4.662708208987028,0 -74.13112970009512,4.662761401467533,0 -74.13117218421694,4.662805323545998,0 -74.13113587071621,4.662838664328387,0 -74.13136564930751,4.663074926670049,0 -74.1312701027649,4.663170265435087,0 -74.13123096098309,4.663140786715075,0 -74.13118773664631,4.663188172467277,0 -74.13121147745653,4.663219534743079,0 -74.13114982549423,4.663288157960448,0 -74.13094043139599,4.663049193453746,0 -74.13089675931225,4.663069970599283,0 -74.13078311614268,4.662947530771183,0 -74.13069926832998,4.663019625831083,0 -74.13044816717192,4.662745375406678,0 -74.13011466933254,4.663050001638319,0 -74.13004753459123,4.662973269257044,0 -74.1299706133964,4.663036587109659,0 -74.13004489480686,4.66311704546108,0 -74.12972900640891,4.663424101557421,0 -74.12969445850115,4.663370935901916,0 -74.12906969383157,4.663995962953455,0 -74.12941711266586,4.664329501014102,0 -74.12953790496869,4.664234622578277,0 -74.13009360833132,4.664816460717032,0 -74.13013767659462,4.664774117020335,0 -74.13017675248119,4.664807190319115,0 -74.1310468996481,4.663981688370648,0 -74.13109653067234,4.664029336449027,0 -74.13107797096302,4.664057762797681,0 -74.13145017204096,4.664416921299639,0 -74.13169641828348,4.664169719519066,0 -74.13151241267987,4.663974340197785,0 
					</coordinates>
				</LinearRing>
			</outerBoundaryIs>
		</Polygon>
	</Placemark>
</Document>
</kml>
