<?xml version="1.0" encoding="UTF-8"?>
<kml xmlns="http://www.opengis.net/kml/2.2" xmlns:gx="http://www.google.com/kml/ext/2.2" xmlns:kml="http://www.opengis.net/kml/2.2" xmlns:atom="http://www.w3.org/2005/Atom">
<Document>
	<name>bog_ciudad_tunal.kml</name>
	<StyleMap id="poly-FF0000-2-76-nodesc1">
		<Pair>
			<key>normal</key>
			<styleUrl>#poly-FF0000-2-76-nodesc-normal00</styleUrl>
		</Pair>
		<Pair>
			<key>highlight</key>
			<styleUrl>#poly-FF0000-2-76-nodesc-highlight0</styleUrl>
		</Pair>
	</StyleMap>
	<Style id="poly-FF0000-2-76-nodesc-normal00">
		<BalloonStyle>
			<text><![CDATA[<h3>$[name]</h3>]]></text>
		</BalloonStyle>
		<LineStyle>
			<color>ffff0000</color>
			<width>2</width>
		</LineStyle>
		<PolyStyle>
			<color>4c0000ff</color>
		</PolyStyle>
	</Style>
	<Style id="poly-FF0000-2-76-nodesc-highlight0">
		<BalloonStyle>
			<text><![CDATA[<h3>$[name]</h3>]]></text>
		</BalloonStyle>
		<LineStyle>
			<color>ffff0000</color>
			<width>3</width>
		</LineStyle>
		<PolyStyle>
			<color>4c0000ff</color>
		</PolyStyle>
	</Style>
	<Placemark>
		<name>CiudadTunal</name>
		<styleUrl>#poly-FF0000-2-76-nodesc1</styleUrl>
		<Polygon>
			<tessellate>1</tessellate>
			<outerBoundaryIs>
				<LinearRing>
					<coordinates>
						-74.13059244516985,4.577069355449332,0 -74.13007693377492,4.577279010704536,0 -74.13005966035563,4.577339509275057,0 -74.1300226003624,4.577351480314736,0 -74.12999179257879,4.577299569100696,0 -74.12995608621631,4.577286484068234,0 -74.12991049715784,4.577300789350469,0 -74.12986069685445,4.577393046821489,0 -74.12978657702894,4.57741698888557,0 -74.12976045267688,4.577382081554705,0 -74.12951765836375,4.57766051725376,0 -74.12955888572381,4.577726948157881,0 -74.12953701451694,4.577820704823198,0 -74.12957061515733,4.577872765941641,0 -74.12950521661624,4.578098206083157,0 -74.12958507086927,4.578292412518552,0 -74.12963005836578,4.578289243278045,0 -74.12964999525919,4.578334986777736,0 -74.1297049511999,4.578354689266881,0 -74.12969212509269,4.578384713651,0 -74.12977131489323,4.578422469518334,0 -74.12977591264196,4.578389211335244,0 -74.12989405292629,4.578431850130146,0 -74.12988356854531,4.578470376501936,0 -74.12994690330635,4.578490528790244,0 -74.1299538427464,4.578465772562975,0 -74.13005816896205,4.57850487776964,0 -74.13004768458801,4.578543404168079,0 -74.13010573438865,4.578557688614785,0 -74.13011018169453,4.57852721441565,0 -74.13022802151998,4.578575421380225,0 -74.13024871054844,4.578607244958758,0 -74.13021429302687,4.578622149927106,0 -74.13023083559135,4.57867887972862,0 -74.13025423181851,4.578660590992151,0 -74.13026374916525,4.578691814928811,0 -74.1303008092174,4.578679843890403,0 -74.13032119755407,4.578717235513315,0 -74.13062257705198,4.578582640935137,0 -74.13064618826547,4.578508521933442,0 -74.13070898663119,4.578486764177377,0 -74.13078847814549,4.578518952244975,0 -74.13101468612659,4.578427787673911,0 -74.13103505336706,4.578361870704224,0 -74.13112962752767,4.578322273834744,0 -74.13103336744325,4.578232957277425,0 -74.1310011191885,4.578155839147089,0 -74.13097941969789,4.577987148007203,0 -74.13092678302387,4.577872638422652,0 -74.13096693724977,4.577855249240568,0 -74.13079300162258,4.577393593461568,0 -74.13074416787838,4.577416101005634,0 -74.13071531503732,4.577327997487759,0 -74.13066398925294,4.577344787084148,0 -74.13064699551471,4.57729640940562,0 -74.13069385296046,4.577206785607802,0 -74.13064725457065,4.577084224459519,0 -74.13059244516985,4.577069355449332,0 
					</coordinates>
				</LinearRing>
			</outerBoundaryIs>
		</Polygon>
	</Placemark>
</Document>
</kml>
