<?xml version='1.0' encoding='UTF-8'?>
<kml xmlns='http://www.opengis.net/kml/2.2'>
	<Document>
		<name>P2</name>
		<Placemark>
			<name>p2</name>
			<styleUrl>#poly-00FF00-2-76-nodesc</styleUrl>
			<Polygon>
				<outerBoundaryIs>
					<LinearRing>
						<tessellate>1</tessellate>
						<coordinates>-74.101217,4.646917,0.0 -74.101239,4.646951,0.0 -74.101152,4.647006,0.0 -74.101163,4.647023,0.0 -74.101137,4.64704,0.0 -74.101156,4.647068,0.0 -74.101126,4.647088,0.0 -74.101163,4.647145,0.0 -74.101112,4.647178,0.0 -74.101074,4.64712,0.0 -74.101046,4.64714,0.0 -74.101029,4.647113,0.0 -74.101003,4.647129,0.0 -74.100966,4.647075,0.0 -74.100516,4.647375,0.0 -74.100526,4.647388,0.0 -74.100478,4.647417,0.0 -74.100493,4.647442,0.0 -74.100454,4.647467,0.0 -74.100495,4.647534,0.0 -74.100458,4.64756,0.0 -74.100556,4.647704,0.0 -74.100597,4.647681,0.0 -74.100619,4.647715,0.0 -74.100702,4.647665,0.0 -74.100753,4.64774,0.0 -74.100672,4.647795,0.0 -74.100695,4.647831,0.0 -74.100653,4.647857,0.0 -74.100759,4.648017,0.0 -74.100797,4.647995,0.0 -74.100831,4.648046,0.0 -74.100873,4.648019,0.0 -74.100887,4.648044,0.0 -74.100938,4.648013,0.0 -74.10095,4.64803,0.0 -74.101399,4.647736,0.0 -74.101365,4.647686,0.0 -74.101392,4.647668,0.0 -74.101376,4.647642,0.0 -74.101403,4.647622,0.0 -74.101363,4.647556,0.0 -74.101408,4.647528,0.0 -74.101451,4.64759,0.0 -74.101482,4.647572,0.0 -74.101497,4.647596,0.0 -74.101524,4.64758,0.0 -74.10178,4.647967,0.0 -74.101746,4.647992,0.0 -74.101986,4.648358,0.0 -74.102022,4.648336,0.0 -74.102127,4.648498,0.0 -74.102704,4.648126,0.0 -74.102702,4.648119,0.0 -74.102714,4.648111,0.0 -74.10268,4.648056,0.0 -74.102693,4.648046,0.0 -74.102647,4.647972,0.0 -74.102618,4.647992,0.0 -74.1023,4.647508,0.0 -74.102314,4.6475,0.0 -74.102307,4.647489,0.0 -74.102401,4.647429,0.0 -74.102409,4.647391,0.0 -74.102606,4.647042,0.0 -74.102642,4.647,0.0 -74.102913,4.646829,0.0 -74.102919,4.64684,0.0 -74.10299,4.646795,0.0 -74.103101,4.646974,0.0 -74.103118,4.646966,0.0 -74.103123,4.646972,0.0 -74.103485,4.646737,0.0 -74.103427,4.646646,0.0 -74.103472,4.646617,0.0 -74.103407,4.646513,0.0 -74.103425,4.646502,0.0 -74.103375,4.646374,0.0 -74.103339,4.646395,0.0 -74.103307,4.64635,0.0 -74.10328,4.646365,0.0 -74.103224,4.646281,0.0 -74.103302,4.646231,0.0 -74.103187,4.646052,0.0 -74.103109,4.646102,0.0 -74.103054,4.646016,0.0 -74.103082,4.645997,0.0 -74.103052,4.645949,0.0 -74.103084,4.645927,0.0 -74.102993,4.645828,0.0 -74.102973,4.645839,0.0 -74.102905,4.645733,0.0 -74.102857,4.645762,0.0 -74.102799,4.645674,0.0 -74.102421,4.645913,0.0 -74.102936,4.646716,0.0 -74.102869,4.64676,0.0 -74.102875,4.64677,0.0 -74.102585,4.646957,0.0 -74.102548,4.647009,0.0 -74.102349,4.647366,0.0 -74.102331,4.647383,0.0 -74.102279,4.647418,0.0 -74.102244,4.647366,0.0 -74.102193,4.6474,0.0 -74.102211,4.647428,0.0 -74.102255,4.647401,0.0 -74.102275,4.647429,0.0 -74.102336,4.647388,0.0 -74.102355,4.647368,0.0 -74.102555,4.647014,0.0 -74.102591,4.646963,0.0 -74.102886,4.646772,0.0 -74.102878,4.646762,0.0 -74.102953,4.646714,0.0 -74.102949,4.646708,0.0 -74.103027,4.646658,0.0 -74.102547,4.645911,0.0 -74.102465,4.645963,0.0 -74.102449,4.64594,0.0 -74.102484,4.645917,0.0 -74.102493,4.645931,0.0 -74.102549,4.645897,0.0 -74.102581,4.645946,0.0 -74.102731,4.645851,0.0 -74.103294,4.646727,0.0 -74.103073,4.646869,0.0 -74.10313,4.646955,0.0 -74.103125,4.64696,0.0 -74.10312,4.646954,0.0 -74.103104,4.646965,0.0 -74.103047,4.646875,0.0 -74.103131,4.646819,0.0 -74.103078,4.646737,0.0 -74.103002,4.646787,0.0 -74.102996,4.64678,0.0 -74.102923,4.646828,0.0 -74.102916,4.646819,0.0 -74.102636,4.646996,0.0 -74.102598,4.647039,0.0 -74.102403,4.647388,0.0 -74.102395,4.647426,0.0 -74.102303,4.647484,0.0 -74.102282,4.647448,0.0 -74.102141,4.647538,0.0 -74.102166,4.647576,0.0 -74.102146,4.647589,0.0 -74.102172,4.647633,0.0 -74.102058,4.647708,0.0 -74.102032,4.647668,0.0 -74.10201,4.64768,0.0 -74.101982,4.64764,0.0 -74.101784,4.647775,0.0 -74.101512,4.647371,0.0 -74.101426,4.647427,0.0 -74.101448,4.647462,0.0 -74.101392,4.647502,0.0 -74.101404,4.64752,0.0 -74.101357,4.647547,0.0 -74.101346,4.64753,0.0 -74.101289,4.647565,0.0 -74.101265,4.647533,0.0 -74.101178,4.647589,0.0 -74.101256,4.647706,0.0 -74.100888,4.647946,0.0 -74.100903,4.647968,0.0 -74.100882,4.647982,0.0 -74.100856,4.647944,0.0 -74.100879,4.64793,0.0 -74.100882,4.647935,0.0 -74.100888,4.64793,0.0 -74.100588,4.647473,0.0 -74.100559,4.647493,0.0 -74.100534,4.647449,0.0 -74.100546,4.647441,0.0 -74.100537,4.647426,0.0 -74.100534,4.647427,0.0 -74.100517,4.6474,0.0 -74.10053,4.647393,0.0 -74.100567,4.647445,0.0 -74.10057,4.647451,0.0 -74.100577,4.64746,0.0 -74.100937,4.647219,0.0 -74.101014,4.647336,0.0 -74.1011,4.64728,0.0 -74.101078,4.647245,0.0 -74.101131,4.647209,0.0 -74.101115,4.647184,0.0 -74.101168,4.647151,0.0 -74.101184,4.647176,0.0 -74.101241,4.647139,0.0 -74.101265,4.647175,0.0 -74.101347,4.647119,0.0 -74.101272,4.647002,0.0 -74.101625,4.646766,0.0 -74.102128,4.647517,0.0 -74.10221,4.647457,0.0 -74.102194,4.647437,0.0 -74.1022,4.647434,0.0 -74.102181,4.647407,0.0 -74.102179,4.647407,0.0 -74.102016,4.647165,0.0 -74.102097,4.64711,0.0 -74.101789,4.646654,0.0 -74.10171,4.646702,0.0 -74.101652,4.646626,0.0 -74.101217,4.646917,0.0</coordinates>
					</LinearRing>
				</outerBoundaryIs>
			</Polygon>
		</Placemark>
		<Placemark>
			<name>p2</name>
			<styleUrl>#poly-00FF00-2-76-nodesc</styleUrl>
			<Polygon>
				<outerBoundaryIs>
					<LinearRing>
						<tessellate>1</tessellate>
						<coordinates>-74.101502,4.646909,0.0 -74.101414,4.646969,0.0 -74.101489,4.647084,0.0 -74.101243,4.647244,0.0 -74.101273,4.64729,0.0 -74.101265,4.647294,0.0 -74.101318,4.647377,0.0 -74.101328,4.647371,0.0 -74.101358,4.647415,0.0 -74.101603,4.647257,0.0 -74.101679,4.647373,0.0 -74.101769,4.647316,0.0 -74.101502,4.646909,0.0</coordinates>
					</LinearRing>
				</outerBoundaryIs>
			</Polygon>
		</Placemark>
		<Placemark>
			<name>p2</name>
			<styleUrl>#poly-00FF00-2-76-nodesc</styleUrl>
			<Polygon>
				<outerBoundaryIs>
					<LinearRing>
						<tessellate>1</tessellate>
						<coordinates>-74.10117,4.647292,0.0 -74.100926,4.647453,0.0 -74.100849,4.647338,0.0 -74.100761,4.647398,0.0 -74.101029,4.6478,0.0 -74.101115,4.647742,0.0 -74.101038,4.647624,0.0 -74.101282,4.647463,0.0 -74.101255,4.647421,0.0 -74.101263,4.647415,0.0 -74.101204,4.647324,0.0 -74.101194,4.64733,0.0 -74.10117,4.647292,0.0</coordinates>
					</LinearRing>
				</outerBoundaryIs>
			</Polygon>
		</Placemark>
		<Placemark>
			<name>p2</name>
			<styleUrl>#poly-00FF00-2-76-nodesc</styleUrl>
			<Polygon>
				<outerBoundaryIs>
					<LinearRing>
						<tessellate>1</tessellate>
						<coordinates>-74.101795,4.647357,0.0 -74.101625,4.647468,0.0 -74.101762,4.647677,0.0 -74.101805,4.64765,0.0 -74.101833,4.647693,0.0 -74.101961,4.64761,0.0 -74.101795,4.647357,0.0</coordinates>
					</LinearRing>
				</outerBoundaryIs>
			</Polygon>
		</Placemark>
		<Placemark>
			<name>p2</name>
			<styleUrl>#poly-00FF00-2-76-nodesc</styleUrl>
			<Polygon>
				<outerBoundaryIs>
					<LinearRing>
						<tessellate>1</tessellate>
						<coordinates>-74.100945,4.647334,0.0 -74.100954,4.647333,0.0 -74.100958,4.647326,0.0 -74.100957,4.647318,0.0 -74.10095,4.647314,0.0 -74.100942,4.647302,0.0 -74.100923,4.647289,0.0 -74.100904,4.647292,0.0 -74.100892,4.647309,0.0 -74.100899,4.64731,0.0 -74.100907,4.647297,0.0 -74.100922,4.647294,0.0 -74.100935,4.647303,0.0 -74.100942,4.647316,0.0 -74.100937,4.647322,0.0 -74.100939,4.647331,0.0 -74.100945,4.647334,0.0</coordinates>
					</LinearRing>
				</outerBoundaryIs>
			</Polygon>
		</Placemark>
		<Placemark>
			<name>p2</name>
			<styleUrl>#poly-00FF00-2-76-nodesc</styleUrl>
			<Polygon>
				<outerBoundaryIs>
					<LinearRing>
						<tessellate>1</tessellate>
						<coordinates>-74.100926,4.647348,0.0 -74.100924,4.647339,0.0 -74.100917,4.647336,0.0 -74.100911,4.647337,0.0 -74.100906,4.647343,0.0 -74.100907,4.647351,0.0 -74.100913,4.647356,0.0 -74.100924,4.647371,0.0 -74.100941,4.64738,0.0 -74.100961,4.647376,0.0 -74.100969,4.647361,0.0 -74.100964,4.64736,0.0 -74.100955,4.647373,0.0 -74.10094,4.647375,0.0 -74.100928,4.647366,0.0 -74.10092,4.647355,0.0 -74.100926,4.647348,0.0</coordinates>
					</LinearRing>
				</outerBoundaryIs>
			</Polygon>
		</Placemark>
		<Placemark>
			<name>p2</name>
			<styleUrl>#poly-00FF00-2-76-nodesc</styleUrl>
			<Polygon>
				<outerBoundaryIs>
					<LinearRing>
						<tessellate>1</tessellate>
						<coordinates>-74.101129,4.647685,0.0 -74.101136,4.647685,0.0 -74.101141,4.647677,0.0 -74.10114,4.647669,0.0 -74.101133,4.647665,0.0 -74.101125,4.647667,0.0 -74.101116,4.647656,0.0 -74.101114,4.647641,0.0 -74.101123,4.647628,0.0 -74.101138,4.647624,0.0 -74.101138,4.64762,0.0 -74.101119,4.647623,0.0 -74.101107,4.647639,0.0 -74.101111,4.647659,0.0 -74.10112,4.647672,0.0 -74.101123,4.647681,0.0 -74.101129,4.647685,0.0</coordinates>
					</LinearRing>
				</outerBoundaryIs>
			</Polygon>
		</Placemark>
		<Placemark>
			<name>p2</name>
			<styleUrl>#poly-00FF00-2-76-nodesc</styleUrl>
			<Polygon>
				<outerBoundaryIs>
					<LinearRing>
						<tessellate>1</tessellate>
						<coordinates>-74.101169,4.647662,0.0 -74.101178,4.647674,0.0 -74.101179,4.647689,0.0 -74.10117,4.647702,0.0 -74.101157,4.647704,0.0 -74.101157,4.64771,0.0 -74.101175,4.647706,0.0 -74.101185,4.647689,0.0 -74.101182,4.64767,0.0 -74.101173,4.647656,0.0 -74.101172,4.647648,0.0 -74.101165,4.647645,0.0 -74.101156,4.647646,0.0 -74.101153,4.647654,0.0 -74.101154,4.64766,0.0 -74.101161,4.647664,0.0 -74.101167,4.647664,0.0 -74.101169,4.647662,0.0</coordinates>
					</LinearRing>
				</outerBoundaryIs>
			</Polygon>
		</Placemark>
		<Placemark>
			<name>p2</name>
			<styleUrl>#poly-00FF00-2-76-nodesc</styleUrl>
			<Polygon>
				<outerBoundaryIs>
					<LinearRing>
						<tessellate>1</tessellate>
						<coordinates>-74.101369,4.647463,0.0 -74.101352,4.64745,0.0 -74.10133,4.647456,0.0 -74.101319,4.647472,0.0 -74.101322,4.647493,0.0 -74.10134,4.647505,0.0 -74.101343,4.647487,0.0 -74.101352,4.647486,0.0 -74.101354,4.647481,0.0 -74.101365,4.647483,0.0 -74.101367,4.647483,0.0 -74.101371,4.647484,0.0 -74.101369,4.647463,0.0</coordinates>
					</LinearRing>
				</outerBoundaryIs>
			</Polygon>
		</Placemark>
		<Placemark>
			<name>p2</name>
			<styleUrl>#poly-00FF00-2-76-nodesc</styleUrl>
			<Polygon>
				<outerBoundaryIs>
					<LinearRing>
						<tessellate>1</tessellate>
						<coordinates>-74.101207,4.647234,0.0 -74.101203,4.647216,0.0 -74.101188,4.647206,0.0 -74.10117,4.64721,0.0 -74.10116,4.647225,0.0 -74.101162,4.647243,0.0 -74.101177,4.647253,0.0 -74.101197,4.647251,0.0 -74.101207,4.647234,0.0</coordinates>
					</LinearRing>
				</outerBoundaryIs>
			</Polygon>
		</Placemark>
		<Placemark>
			<name>p2</name>
			<styleUrl>#poly-00FF00-2-76-nodesc</styleUrl>
			<Polygon>
				<outerBoundaryIs>
					<LinearRing>
						<tessellate>1</tessellate>
						<coordinates>-74.101389,4.647038,0.0 -74.101395,4.647042,0.0 -74.101403,4.64704,0.0 -74.101411,4.647052,0.0 -74.101414,4.647066,0.0 -74.101405,4.64708,0.0 -74.101391,4.647082,0.0 -74.10139,4.647088,0.0 -74.101408,4.647085,0.0 -74.101418,4.64707,0.0 -74.101418,4.647052,0.0 -74.101407,4.647035,0.0 -74.101406,4.647027,0.0 -74.101398,4.647023,0.0 -74.101391,4.647024,0.0 -74.101387,4.64703,0.0 -74.101389,4.647038,0.0</coordinates>
					</LinearRing>
				</outerBoundaryIs>
			</Polygon>
		</Placemark>
		<Placemark>
			<name>p2</name>
			<styleUrl>#poly-00FF00-2-76-nodesc</styleUrl>
			<Polygon>
				<outerBoundaryIs>
					<LinearRing>
						<tessellate>1</tessellate>
						<coordinates>-74.101374,4.647048,0.0 -74.101367,4.647043,0.0 -74.101357,4.647046,0.0 -74.101351,4.647034,0.0 -74.101348,4.647018,0.0 -74.101357,4.647005,0.0 -74.101371,4.647004,0.0 -74.101373,4.646998,0.0 -74.101354,4.647,0.0 -74.101342,4.647017,0.0 -74.101346,4.647037,0.0 -74.101355,4.64705,0.0 -74.101356,4.647058,0.0 -74.101363,4.647062,0.0 -74.101371,4.647061,0.0 -74.101374,4.647056,0.0 -74.101374,4.647048,0.0</coordinates>
					</LinearRing>
				</outerBoundaryIs>
			</Polygon>
		</Placemark>
		<Placemark>
			<name>p2</name>
			<styleUrl>#poly-00FF00-2-76-nodesc</styleUrl>
			<Polygon>
				<outerBoundaryIs>
					<LinearRing>
						<tessellate>1</tessellate>
						<coordinates>-74.101548,4.646887,0.0 -74.101556,4.64693,0.0 -74.101628,4.647039,0.0 -74.101637,4.647035,0.0 -74.101654,4.647062,0.0 -74.101646,4.647067,0.0 -74.101682,4.647121,0.0 -74.101691,4.647116,0.0 -74.101708,4.647143,0.0 -74.101699,4.64715,0.0 -74.101772,4.647259,0.0 -74.101807,4.647284,0.0 -74.101848,4.647281,0.0 -74.101839,4.64727,0.0 -74.101853,4.64726,0.0 -74.10186,4.647272,0.0 -74.101882,4.647233,0.0 -74.101869,4.647192,0.0 -74.101799,4.647085,0.0 -74.101787,4.647093,0.0 -74.101769,4.647066,0.0 -74.10178,4.647057,0.0 -74.101745,4.647003,0.0 -74.101732,4.64701,0.0 -74.101716,4.646982,0.0 -74.101727,4.646974,0.0 -74.101655,4.646864,0.0 -74.10162,4.64684,0.0 -74.10158,4.646844,0.0 -74.101585,4.646854,0.0 -74.101574,4.64686,0.0 -74.101567,4.646853,0.0 -74.101548,4.646887,0.0</coordinates>
					</LinearRing>
				</outerBoundaryIs>
			</Polygon>
		</Placemark>
		<Placemark>
			<name>p2</name>
			<styleUrl>#poly-00FF00-2-76-nodesc</styleUrl>
			<Polygon>
				<outerBoundaryIs>
					<LinearRing>
						<tessellate>1</tessellate>
						<coordinates>-74.101618,4.647371,0.0 -74.101621,4.647366,0.0 -74.10162,4.647355,0.0 -74.101614,4.647352,0.0 -74.101607,4.647341,0.0 -74.101588,4.647327,0.0 -74.101569,4.64733,0.0 -74.101557,4.647347,0.0 -74.101563,4.647347,0.0 -74.101573,4.647335,0.0 -74.101587,4.647333,0.0 -74.101599,4.64734,0.0 -74.101607,4.647354,0.0 -74.101602,4.647359,0.0 -74.101604,4.647368,0.0 -74.10161,4.647373,0.0 -74.101618,4.647371,0.0</coordinates>
					</LinearRing>
				</outerBoundaryIs>
			</Polygon>
		</Placemark>
		<Placemark>
			<name>p2</name>
			<styleUrl>#poly-00FF00-2-76-nodesc</styleUrl>
			<Polygon>
				<outerBoundaryIs>
					<LinearRing>
						<tessellate>1</tessellate>
						<coordinates>-74.101583,4.647373,0.0 -74.101575,4.647373,0.0 -74.101571,4.64738,0.0 -74.101572,4.647388,0.0 -74.10158,4.647393,0.0 -74.101587,4.647407,0.0 -74.101604,4.647418,0.0 -74.101626,4.647414,0.0 -74.101635,4.647399,0.0 -74.10163,4.647398,0.0 -74.101621,4.647409,0.0 -74.101605,4.647412,0.0 -74.101592,4.647404,0.0 -74.101585,4.647392,0.0 -74.101591,4.647384,0.0 -74.101589,4.647376,0.0 -74.101583,4.647373,0.0</coordinates>
					</LinearRing>
				</outerBoundaryIs>
			</Polygon>
		</Placemark>
		<Placemark>
			<name>p2</name>
			<styleUrl>#poly-00FF00-2-76-nodesc</styleUrl>
			<Polygon>
				<outerBoundaryIs>
					<LinearRing>
						<tessellate>1</tessellate>
						<coordinates>-74.100926,4.647707,0.0 -74.100915,4.647714,0.0 -74.100905,4.647699,0.0 -74.100915,4.647692,0.0 -74.10088,4.64764,0.0 -74.100847,4.647589,0.0 -74.100813,4.647535,0.0 -74.100804,4.647542,0.0 -74.100792,4.647527,0.0 -74.100803,4.647522,0.0 -74.10079,4.6475,0.0 -74.100751,4.647476,0.0 -74.100709,4.647483,0.0 -74.100682,4.647522,0.0 -74.100688,4.647564,0.0 -74.1007,4.647585,0.0 -74.100712,4.647579,0.0 -74.100724,4.647594,0.0 -74.100713,4.647601,0.0 -74.100815,4.647758,0.0 -74.100825,4.647752,0.0 -74.100834,4.647766,0.0 -74.100825,4.647772,0.0 -74.100839,4.647793,0.0 -74.100876,4.647817,0.0 -74.100921,4.647809,0.0 -74.100946,4.647771,0.0 -74.100937,4.647727,0.0 -74.100926,4.647707,0.0</coordinates>
					</LinearRing>
				</outerBoundaryIs>
			</Polygon>
		</Placemark>
		<Placemark>
			<name>p2</name>
			<styleUrl>#poly-00FF00-2-76-nodesc</styleUrl>
			<Polygon>
				<outerBoundaryIs>
					<LinearRing>
						<tessellate>1</tessellate>
						<coordinates>-74.100694,4.647427,0.0 -74.100686,4.647428,0.0 -74.100665,4.647442,0.0 -74.100662,4.647447,0.0 -74.100664,4.647455,0.0 -74.10067,4.647459,0.0 -74.100676,4.647458,0.0 -74.100698,4.647444,0.0 -74.100701,4.647439,0.0 -74.1007,4.647431,0.0 -74.100694,4.647427,0.0</coordinates>
					</LinearRing>
				</outerBoundaryIs>
			</Polygon>
		</Placemark>
		<Placemark>
			<name>p2</name>
			<styleUrl>#poly-00FF00-2-76-nodesc</styleUrl>
			<Polygon>
				<outerBoundaryIs>
					<LinearRing>
						<tessellate>1</tessellate>
						<coordinates>-74.100961,4.647833,0.0 -74.100952,4.647835,0.0 -74.100931,4.647849,0.0 -74.100927,4.647855,0.0 -74.100929,4.64786,0.0 -74.100935,4.647866,0.0 -74.100942,4.647864,0.0 -74.100964,4.64785,0.0 -74.100966,4.647843,0.0 -74.100966,4.647837,0.0 -74.100961,4.647833,0.0</coordinates>
					</LinearRing>
				</outerBoundaryIs>
			</Polygon>
		</Placemark>
		<Placemark>
			<name>p2</name>
			<styleUrl>#poly-00FF00-2-76-nodesc</styleUrl>
			<Polygon>
				<outerBoundaryIs>
					<LinearRing>
						<tessellate>1</tessellate>
						<coordinates>-74.102926,4.646223,0.0 -74.102899,4.646238,0.0 -74.102903,4.646242,0.0 -74.102895,4.646247,0.0 -74.102889,4.646238,0.0 -74.102859,4.646257,0.0 -74.102865,4.646264,0.0 -74.102859,4.646269,0.0 -74.102855,4.646267,0.0 -74.102829,4.646285,0.0 -74.102918,4.646422,0.0 -74.102923,4.646422,0.0 -74.102938,4.646442,0.0 -74.102958,4.646427,0.0 -74.10295,4.646419,0.0 -74.102959,4.646415,0.0 -74.102955,4.64641,0.0 -74.102989,4.646388,0.0 -74.102994,4.646394,0.0 -74.103,4.646391,0.0 -74.103008,4.6464,0.0 -74.103028,4.646385,0.0 -74.103012,4.646364,0.0 -74.103018,4.646361,0.0 -74.102926,4.646223,0.0</coordinates>
					</LinearRing>
				</outerBoundaryIs>
			</Polygon>
		</Placemark>
		<Placemark>
			<name>p2</name>
			<styleUrl>#poly-00FF00-2-76-nodesc</styleUrl>
			<Polygon>
				<outerBoundaryIs>
					<LinearRing>
						<tessellate>1</tessellate>
						<coordinates>-74.10303,4.646693,0.0 -74.103029,4.646693,0.0 -74.102992,4.646717,0.0 -74.102989,4.64673,0.0 -74.102992,4.646739,0.0 -74.102996,4.646742,0.0 -74.103001,4.646745,0.0 -74.103007,4.646745,0.0 -74.103012,4.646745,0.0 -74.103047,4.646722,0.0 -74.103051,4.646714,0.0 -74.103051,4.646708,0.0 -74.103049,4.646703,0.0 -74.103045,4.646699,0.0 -74.103039,4.646694,0.0 -74.10303,4.646693,0.0</coordinates>
					</LinearRing>
				</outerBoundaryIs>
			</Polygon>
		</Placemark>
		<Placemark>
			<name>p2</name>
			<styleUrl>#poly-00FF00-2-76-nodesc</styleUrl>
			<Polygon>
				<outerBoundaryIs>
					<LinearRing>
						<tessellate>1</tessellate>
						<coordinates>-74.103134,4.646749,0.0 -74.103146,4.646754,0.0 -74.103162,4.646757,0.0 -74.103172,4.646754,0.0 -74.103187,4.64675,0.0 -74.103197,4.646745,0.0 -74.103204,4.646739,0.0 -74.103208,4.646735,0.0 -74.103216,4.646724,0.0 -74.10322,4.646717,0.0 -74.103223,4.646708,0.0 -74.103223,4.64669,0.0 -74.103222,4.64668,0.0 -74.103219,4.646673,0.0 -74.103071,4.646445,0.0 -74.103065,4.646438,0.0 -74.103055,4.646432,0.0 -74.103043,4.646429,0.0 -74.103031,4.646429,0.0 -74.103018,4.646429,0.0 -74.103007,4.646433,0.0 -74.102995,4.646438,0.0 -74.102988,4.646444,0.0 -74.10298,4.646452,0.0 -74.102975,4.646459,0.0 -74.102971,4.646467,0.0 -74.102967,4.646479,0.0 -74.102967,4.646494,0.0 -74.102971,4.646505,0.0 -74.103117,4.646735,0.0 -74.103134,4.646749,0.0</coordinates>
					</LinearRing>
				</outerBoundaryIs>
			</Polygon>
		</Placemark>
		<Placemark>
			<name>p2</name>
			<styleUrl>#poly-00FF00-2-76-nodesc</styleUrl>
			<Polygon>
				<outerBoundaryIs>
					<LinearRing>
						<tessellate>1</tessellate>
						<coordinates>-74.102876,4.646138,0.0 -74.102748,4.645938,0.0 -74.102743,4.645932,0.0 -74.102728,4.645922,0.0 -74.102708,4.64592,0.0 -74.10269,4.645924,0.0 -74.102678,4.645928,0.0 -74.102665,4.645935,0.0 -74.102658,4.645943,0.0 -74.102652,4.645953,0.0 -74.102647,4.645963,0.0 -74.102646,4.645976,0.0 -74.102646,4.64599,0.0 -74.102648,4.646001,0.0 -74.102779,4.646205,0.0 -74.102784,4.646212,0.0 -74.102793,4.646217,0.0 -74.102803,4.646221,0.0 -74.102812,4.646223,0.0 -74.102826,4.646224,0.0 -74.102835,4.646222,0.0 -74.102851,4.646216,0.0 -74.10286,4.64621,0.0 -74.102869,4.646203,0.0 -74.102877,4.646194,0.0 -74.102881,4.646184,0.0 -74.102883,4.646169,0.0 -74.102881,4.646154,0.0 -74.102879,4.646146,0.0 -74.102876,4.646138,0.0</coordinates>
					</LinearRing>
				</outerBoundaryIs>
			</Polygon>
		</Placemark>
		<Placemark>
			<name>p2</name>
			<styleUrl>#poly-00FF00-2-76-nodesc</styleUrl>
			<Polygon>
				<outerBoundaryIs>
					<LinearRing>
						<tessellate>1</tessellate>
						<coordinates>-74.101927,4.647281,0.0 -74.101917,4.647287,0.0 -74.101921,4.647293,0.0 -74.101897,4.647308,0.0 -74.101892,4.647301,0.0 -74.101861,4.647322,0.0 -74.101868,4.64733,0.0 -74.101843,4.647346,0.0 -74.101837,4.647339,0.0 -74.101829,4.647345,0.0 -74.101988,4.647587,0.0 -74.102022,4.647615,0.0 -74.102062,4.647614,0.0 -74.102053,4.647603,0.0 -74.102072,4.647592,0.0 -74.102081,4.647602,0.0 -74.102097,4.647563,0.0 -74.102086,4.647521,0.0 -74.101927,4.647281,0.0</coordinates>
					</LinearRing>
				</outerBoundaryIs>
			</Polygon>
		</Placemark>
		<Placemark>
			<name>p2</name>
			<styleUrl>#poly-00FF00-2-76-nodesc</styleUrl>
			<Polygon>
				<outerBoundaryIs>
					<LinearRing>
						<tessellate>1</tessellate>
						<coordinates>-74.102191,4.647399,0.0 -74.102182,4.647406,0.0 -74.1022,4.647435,0.0 -74.10221,4.647429,0.0 -74.102191,4.647399,0.0</coordinates>
					</LinearRing>
				</outerBoundaryIs>
			</Polygon>
		</Placemark>
		<Placemark>
			<name>p2</name>
			<styleUrl>#line-00FF00-2-nodesc</styleUrl>
			<LineString>
				<tessellate>1</tessellate>
				<coordinates>-74.102742,4.646212,0.0 -74.102651,4.64627,0.0</coordinates>
			</LineString>
		</Placemark>
		<Placemark>
			<name>p2</name>
			<styleUrl>#line-00FF00-2-nodesc</styleUrl>
			<LineString>
				<tessellate>1</tessellate>
				<coordinates>-74.102711,4.646167,0.0 -74.10262,4.646224,0.0</coordinates>
			</LineString>
		</Placemark>
		<Placemark>
			<name>p2</name>
			<styleUrl>#line-00FF00-2-nodesc</styleUrl>
			<LineString>
				<tessellate>1</tessellate>
				<coordinates>-74.102683,4.646124,0.0 -74.102592,4.64618,0.0</coordinates>
			</LineString>
		</Placemark>
		<Placemark>
			<name>p2</name>
			<styleUrl>#line-00FF00-2-nodesc</styleUrl>
			<LineString>
				<tessellate>1</tessellate>
				<coordinates>-74.102653,4.646077,0.0 -74.102564,4.646133,0.0</coordinates>
			</LineString>
		</Placemark>
		<Placemark>
			<name>p2</name>
			<styleUrl>#line-00FF00-2-nodesc</styleUrl>
			<LineString>
				<tessellate>1</tessellate>
				<coordinates>-74.102625,4.646033,0.0 -74.102535,4.646089,0.0</coordinates>
			</LineString>
		</Placemark>
		<Placemark>
			<name>p2</name>
			<styleUrl>#line-00FF00-2-nodesc</styleUrl>
			<LineString>
				<tessellate>1</tessellate>
				<coordinates>-74.102597,4.645991,0.0 -74.102509,4.646045,0.0</coordinates>
			</LineString>
		</Placemark>
		<Placemark>
			<name>p2</name>
			<styleUrl>#line-00FF00-2-nodesc</styleUrl>
			<LineString>
				<tessellate>1</tessellate>
				<coordinates>-74.102568,4.645945,0.0 -74.10252,4.645974,0.0 -74.102499,4.645942,0.0</coordinates>
			</LineString>
		</Placemark>
		<Placemark>
			<name>p2</name>
			<styleUrl>#line-00FF00-2-nodesc</styleUrl>
			<LineString>
				<tessellate>1</tessellate>
				<coordinates>-74.102549,4.645898,0.0 -74.10252,4.645852,0.0</coordinates>
			</LineString>
		</Placemark>
		<Placemark>
			<name>p2</name>
			<styleUrl>#line-00FF00-2-nodesc</styleUrl>
			<LineString>
				<tessellate>1</tessellate>
				<coordinates>-74.102618,4.645923,0.0 -74.102557,4.645827,0.0</coordinates>
			</LineString>
		</Placemark>
		<Placemark>
			<name>p2</name>
			<styleUrl>#line-00FF00-2-nodesc</styleUrl>
			<LineString>
				<tessellate>1</tessellate>
				<coordinates>-74.102652,4.6459,0.0 -74.102593,4.645805,0.0</coordinates>
			</LineString>
		</Placemark>
		<Placemark>
			<name>p2</name>
			<styleUrl>#line-00FF00-2-nodesc</styleUrl>
			<LineString>
				<tessellate>1</tessellate>
				<coordinates>-74.102691,4.645875,0.0 -74.102631,4.64578,0.0</coordinates>
			</LineString>
		</Placemark>
		<Placemark>
			<name>p2</name>
			<styleUrl>#line-00FF00-2-nodesc</styleUrl>
			<LineString>
				<tessellate>1</tessellate>
				<coordinates>-74.10273,4.645851,0.0 -74.10267,4.645756,0.0</coordinates>
			</LineString>
		</Placemark>
		<Placemark>
			<name>p2</name>
			<styleUrl>#line-00FF00-2-nodesc</styleUrl>
			<LineString>
				<tessellate>1</tessellate>
				<coordinates>-74.102786,4.645934,0.0 -74.102962,4.645823,0.0</coordinates>
			</LineString>
		</Placemark>
		<Placemark>
			<name>p2</name>
			<styleUrl>#line-00FF00-2-nodesc</styleUrl>
			<LineString>
				<tessellate>1</tessellate>
				<coordinates>-74.102841,4.646022,0.0 -74.103052,4.645891,0.0</coordinates>
			</LineString>
		</Placemark>
		<Placemark>
			<name>p2</name>
			<styleUrl>#line-00FF00-2-nodesc</styleUrl>
			<LineString>
				<tessellate>1</tessellate>
				<coordinates>-74.102897,4.646112,0.0 -74.103054,4.646017,0.0</coordinates>
			</LineString>
		</Placemark>
		<Placemark>
			<name>p2</name>
			<styleUrl>#line-00FF00-2-nodesc</styleUrl>
			<LineString>
				<tessellate>1</tessellate>
				<coordinates>-74.102955,4.646199,0.0 -74.103109,4.646101,0.0</coordinates>
			</LineString>
		</Placemark>
		<Placemark>
			<name>p2</name>
			<styleUrl>#line-00FF00-2-nodesc</styleUrl>
			<LineString>
				<tessellate>1</tessellate>
				<coordinates>-74.103012,4.64629,0.0 -74.103243,4.646143,0.0</coordinates>
			</LineString>
		</Placemark>
		<Placemark>
			<name>p2</name>
			<styleUrl>#line-00FF00-2-nodesc</styleUrl>
			<LineString>
				<tessellate>1</tessellate>
				<coordinates>-74.10307,4.646378,0.0 -74.103224,4.646281,0.0</coordinates>
			</LineString>
		</Placemark>
		<Placemark>
			<name>p2</name>
			<styleUrl>#line-00FF00-2-nodesc</styleUrl>
			<LineString>
				<tessellate>1</tessellate>
				<coordinates>-74.103124,4.646466,0.0 -74.103279,4.646367,0.0</coordinates>
			</LineString>
		</Placemark>
		<Placemark>
			<name>p2</name>
			<styleUrl>#line-00FF00-2-nodesc</styleUrl>
			<LineString>
				<tessellate>1</tessellate>
				<coordinates>-74.103184,4.646555,0.0 -74.10339,4.646424,0.0</coordinates>
			</LineString>
		</Placemark>
		<Placemark>
			<name>p2</name>
			<styleUrl>#line-00FF00-2-nodesc</styleUrl>
			<LineString>
				<tessellate>1</tessellate>
				<coordinates>-74.103239,4.646644,0.0 -74.103416,4.64653,0.0</coordinates>
			</LineString>
		</Placemark>
		<Placemark>
			<name>p2</name>
			<styleUrl>#line-00FF00-2-nodesc</styleUrl>
			<LineString>
				<tessellate>1</tessellate>
				<coordinates>-74.103212,4.646779,0.0 -74.103273,4.646875,0.0</coordinates>
			</LineString>
		</Placemark>
		<Placemark>
			<name>p2</name>
			<styleUrl>#line-00FF00-2-nodesc</styleUrl>
			<LineString>
				<tessellate>1</tessellate>
				<coordinates>-74.102967,4.646567,0.0 -74.102876,4.646624,0.0</coordinates>
			</LineString>
		</Placemark>
		<Placemark>
			<name>p2</name>
			<styleUrl>#line-00FF00-2-nodesc</styleUrl>
			<LineString>
				<tessellate>1</tessellate>
				<coordinates>-74.102939,4.646522,0.0 -74.102847,4.646578,0.0</coordinates>
			</LineString>
		</Placemark>
		<Placemark>
			<name>p2</name>
			<styleUrl>#line-00FF00-2-nodesc</styleUrl>
			<LineString>
				<tessellate>1</tessellate>
				<coordinates>-74.10291,4.646477,0.0 -74.102819,4.646535,0.0</coordinates>
			</LineString>
		</Placemark>
		<Placemark>
			<name>p2</name>
			<styleUrl>#line-00FF00-2-nodesc</styleUrl>
			<LineString>
				<tessellate>1</tessellate>
				<coordinates>-74.102853,4.646389,0.0 -74.102763,4.646446,0.0</coordinates>
			</LineString>
		</Placemark>
		<Placemark>
			<name>p2</name>
			<styleUrl>#line-00FF00-2-nodesc</styleUrl>
			<LineString>
				<tessellate>1</tessellate>
				<coordinates>-74.102825,4.646343,0.0 -74.102733,4.646402,0.0</coordinates>
			</LineString>
		</Placemark>
		<Placemark>
			<name>p2</name>
			<styleUrl>#line-00FF00-2-nodesc</styleUrl>
			<LineString>
				<tessellate>1</tessellate>
				<coordinates>-74.102796,4.646299,0.0 -74.102706,4.646356,0.0</coordinates>
			</LineString>
		</Placemark>
		<Placemark>
			<name>p2</name>
			<styleUrl>#line-00FF00-2-nodesc</styleUrl>
			<LineString>
				<tessellate>1</tessellate>
				<coordinates>-74.102178,4.647406,0.0 -74.102093,4.647463,0.0</coordinates>
			</LineString>
		</Placemark>
		<Placemark>
			<name>p2</name>
			<styleUrl>#line-00FF00-2-nodesc</styleUrl>
			<LineString>
				<tessellate>1</tessellate>
				<coordinates>-74.102182,4.647477,0.0 -74.102148,4.647427,0.0</coordinates>
			</LineString>
		</Placemark>
		<Placemark>
			<name>p2</name>
			<styleUrl>#line-00FF00-2-nodesc</styleUrl>
			<LineString>
				<tessellate>1</tessellate>
				<coordinates>-74.102167,4.647455,0.0 -74.102156,4.647463,0.0 -74.102171,4.647484,0.0</coordinates>
			</LineString>
		</Placemark>
		<Placemark>
			<name>p2</name>
			<styleUrl>#line-00FF00-2-nodesc</styleUrl>
			<LineString>
				<tessellate>1</tessellate>
				<coordinates>-74.102145,4.647357,0.0 -74.10206,4.647416,0.0</coordinates>
			</LineString>
		</Placemark>
		<Placemark>
			<name>p2</name>
			<styleUrl>#line-00FF00-2-nodesc</styleUrl>
			<LineString>
				<tessellate>1</tessellate>
				<coordinates>-74.102091,4.647275,0.0 -74.102006,4.647332,0.0</coordinates>
			</LineString>
		</Placemark>
		<Placemark>
			<name>p2</name>
			<styleUrl>#line-00FF00-2-nodesc</styleUrl>
			<LineString>
				<tessellate>1</tessellate>
				<coordinates>-74.102035,4.647194,0.0 -74.101951,4.64725,0.0</coordinates>
			</LineString>
		</Placemark>
		<Placemark>
			<name>p2</name>
			<styleUrl>#line-00FF00-2-nodesc</styleUrl>
			<LineString>
				<tessellate>1</tessellate>
				<coordinates>-74.102014,4.647163,0.0 -74.10193,4.647216,0.0</coordinates>
			</LineString>
		</Placemark>
		<Placemark>
			<name>p2</name>
			<styleUrl>#line-00FF00-2-nodesc</styleUrl>
			<LineString>
				<tessellate>1</tessellate>
				<coordinates>-74.102,4.646964,0.0 -74.101834,4.647074,0.0</coordinates>
			</LineString>
		</Placemark>
		<Placemark>
			<name>p2</name>
			<styleUrl>#line-00FF00-2-nodesc</styleUrl>
			<LineString>
				<tessellate>1</tessellate>
				<coordinates>-74.10183,4.646703,0.0 -74.101664,4.646815,0.0</coordinates>
			</LineString>
		</Placemark>
		<Placemark>
			<name>p2</name>
			<styleUrl>#line-00FF00-2-nodesc</styleUrl>
			<LineString>
				<tessellate>1</tessellate>
				<coordinates>-74.10171,4.646702,0.0 -74.101624,4.646767,0.0</coordinates>
			</LineString>
		</Placemark>
		<Placemark>
			<name>p2</name>
			<styleUrl>#line-00FF00-2-nodesc</styleUrl>
			<LineString>
				<tessellate>1</tessellate>
				<coordinates>-74.101546,4.646818,0.0 -74.101491,4.646733,0.0</coordinates>
			</LineString>
		</Placemark>
		<Placemark>
			<name>p2</name>
			<styleUrl>#line-00FF00-2-nodesc</styleUrl>
			<LineString>
				<tessellate>1</tessellate>
				<coordinates>-74.101507,4.646845,0.0 -74.10145,4.646761,0.0</coordinates>
			</LineString>
		</Placemark>
		<Placemark>
			<name>p2</name>
			<styleUrl>#line-00FF00-2-nodesc</styleUrl>
			<LineString>
				<tessellate>1</tessellate>
				<coordinates>-74.101467,4.646873,0.0 -74.101411,4.646787,0.0</coordinates>
			</LineString>
		</Placemark>
		<Placemark>
			<name>p2</name>
			<styleUrl>#line-00FF00-2-nodesc</styleUrl>
			<LineString>
				<tessellate>1</tessellate>
				<coordinates>-74.101424,4.646899,0.0 -74.101368,4.646814,0.0</coordinates>
			</LineString>
		</Placemark>
		<Placemark>
			<name>p2</name>
			<styleUrl>#line-00FF00-2-nodesc</styleUrl>
			<LineString>
				<tessellate>1</tessellate>
				<coordinates>-74.101384,4.646926,0.0 -74.101328,4.646843,0.0</coordinates>
			</LineString>
		</Placemark>
		<Placemark>
			<name>p2</name>
			<styleUrl>#line-00FF00-2-nodesc</styleUrl>
			<LineString>
				<tessellate>1</tessellate>
				<coordinates>-74.101345,4.646954,0.0 -74.10129,4.646868,0.0</coordinates>
			</LineString>
		</Placemark>
		<Placemark>
			<name>p2</name>
			<styleUrl>#line-00FF00-2-nodesc</styleUrl>
			<LineString>
				<tessellate>1</tessellate>
				<coordinates>-74.101305,4.646979,0.0 -74.101249,4.646897,0.0</coordinates>
			</LineString>
		</Placemark>
		<Placemark>
			<name>p2</name>
			<styleUrl>#line-00FF00-2-nodesc</styleUrl>
			<LineString>
				<tessellate>1</tessellate>
				<coordinates>-74.101271,4.647002,0.0 -74.101238,4.64695,0.0</coordinates>
			</LineString>
		</Placemark>
		<Placemark>
			<name>p2</name>
			<styleUrl>#line-00FF00-2-nodesc</styleUrl>
			<LineString>
				<tessellate>1</tessellate>
				<coordinates>-74.101162,4.647023,0.0 -74.10124,4.64714,0.0</coordinates>
			</LineString>
		</Placemark>
		<Placemark>
			<name>p2</name>
			<styleUrl>#line-00FF00-2-nodesc</styleUrl>
			<LineString>
				<tessellate>1</tessellate>
				<coordinates>-74.102319,4.647538,0.0 -74.102172,4.647633,0.0</coordinates>
			</LineString>
		</Placemark>
		<Placemark>
			<name>p2</name>
			<styleUrl>#line-00FF00-2-nodesc</styleUrl>
			<LineString>
				<tessellate>1</tessellate>
				<coordinates>-74.102059,4.647709,0.0 -74.101837,4.647857,0.0 -74.101783,4.647777,0.0</coordinates>
			</LineString>
		</Placemark>
		<Placemark>
			<name>p2</name>
			<styleUrl>#line-00FF00-2-nodesc</styleUrl>
			<LineString>
				<tessellate>1</tessellate>
				<coordinates>-74.101903,4.647693,0.0 -74.101959,4.647775,0.0</coordinates>
			</LineString>
		</Placemark>
		<Placemark>
			<name>p2</name>
			<styleUrl>#line-00FF00-2-nodesc</styleUrl>
			<LineString>
				<tessellate>1</tessellate>
				<coordinates>-74.101915,4.647805,0.0 -74.101861,4.647724,0.0 -74.101861,4.647725,0.0</coordinates>
			</LineString>
		</Placemark>
		<Placemark>
			<name>p2</name>
			<styleUrl>#line-00FF00-2-nodesc</styleUrl>
			<LineString>
				<tessellate>1</tessellate>
				<coordinates>-74.101874,4.647831,0.0 -74.10182,4.64775,0.0</coordinates>
			</LineString>
		</Placemark>
		<Placemark>
			<name>p2</name>
			<styleUrl>#line-00FF00-2-nodesc</styleUrl>
			<LineString>
				<tessellate>1</tessellate>
				<coordinates>-74.101523,4.647579,0.0 -74.101611,4.64752,0.0</coordinates>
			</LineString>
		</Placemark>
		<Placemark>
			<name>p2</name>
			<styleUrl>#line-00FF00-2-nodesc</styleUrl>
			<LineString>
				<tessellate>1</tessellate>
				<coordinates>-74.101524,4.647578,0.0 -74.101449,4.647462,0.0</coordinates>
			</LineString>
		</Placemark>
		<Placemark>
			<name>p2</name>
			<styleUrl>#line-00FF00-2-nodesc</styleUrl>
			<LineString>
				<tessellate>1</tessellate>
				<coordinates>-74.101734,4.647632,0.0 -74.101901,4.647519,0.0</coordinates>
			</LineString>
		</Placemark>
		<Placemark>
			<name>p2</name>
			<styleUrl>#line-00FF00-2-nodesc</styleUrl>
			<LineString>
				<tessellate>1</tessellate>
				<coordinates>-74.101928,4.647561,0.0 -74.101845,4.647616,0.0 -74.101792,4.647534,0.0 -74.101875,4.647478,0.0</coordinates>
			</LineString>
		</Placemark>
		<Placemark>
			<name>p2</name>
			<styleUrl>#line-00FF00-2-nodesc</styleUrl>
			<LineString>
				<tessellate>1</tessellate>
				<coordinates>-74.101679,4.647549,0.0 -74.101847,4.647437,0.0</coordinates>
			</LineString>
		</Placemark>
		<Placemark>
			<name>p2</name>
			<styleUrl>#line-00FF00-2-nodesc</styleUrl>
			<LineString>
				<tessellate>1</tessellate>
				<coordinates>-74.101763,4.647492,0.0 -74.101711,4.647413,0.0</coordinates>
			</LineString>
		</Placemark>
		<Placemark>
			<name></name>
		</Placemark>
		<Placemark>
			<name>p2</name>
			<styleUrl>#line-00FF00-2-nodesc</styleUrl>
			<LineString>
				<tessellate>1</tessellate>
				<coordinates>-74.101714,4.647232,0.0 -74.101621,4.647289,0.0</coordinates>
			</LineString>
		</Placemark>
		<Placemark>
			<name>p2</name>
			<styleUrl>#line-00FF00-2-nodesc</styleUrl>
			<LineString>
				<tessellate>1</tessellate>
				<coordinates>-74.101686,4.64719,0.0 -74.101601,4.647245,0.0 -74.101603,4.647256,0.0</coordinates>
			</LineString>
		</Placemark>
		<Placemark>
			<name>p2</name>
			<styleUrl>#line-00FF00-2-nodesc</styleUrl>
			<LineString>
				<tessellate>1</tessellate>
				<coordinates>-74.101603,4.647069,0.0 -74.10152,4.647125,0.0 -74.101489,4.647084,0.0</coordinates>
			</LineString>
		</Placemark>
		<Placemark>
			<name>p2</name>
			<styleUrl>#line-00FF00-2-nodesc</styleUrl>
			<LineString>
				<tessellate>1</tessellate>
				<coordinates>-74.101578,4.647027,0.0 -74.10149,4.647086,0.0</coordinates>
			</LineString>
		</Placemark>
		<Placemark>
			<name>p2</name>
			<styleUrl>#line-00FF00-2-nodesc</styleUrl>
			<LineString>
				<tessellate>1</tessellate>
				<coordinates>-74.101551,4.646985,0.0 -74.101464,4.647044,0.0</coordinates>
			</LineString>
		</Placemark>
		<Placemark>
			<name>p2</name>
			<styleUrl>#line-00FF00-2-nodesc</styleUrl>
			<LineString>
				<tessellate>1</tessellate>
				<coordinates>-74.101601,4.647246,0.0 -74.101546,4.647165,0.0 -74.101291,4.647335,0.0</coordinates>
			</LineString>
		</Placemark>
		<Placemark>
			<name>p2</name>
			<styleUrl>#line-00FF00-2-nodesc</styleUrl>
			<LineString>
				<tessellate>1</tessellate>
				<coordinates>-74.101564,4.647282,0.0 -74.101451,4.647109,0.0</coordinates>
			</LineString>
		</Placemark>
		<Placemark>
			<name>p2</name>
			<styleUrl>#line-00FF00-2-nodesc</styleUrl>
			<LineString>
				<tessellate>1</tessellate>
				<coordinates>-74.101524,4.647307,0.0 -74.101408,4.647136,0.0</coordinates>
			</LineString>
		</Placemark>
		<Placemark>
			<name>p2</name>
			<styleUrl>#line-00FF00-2-nodesc</styleUrl>
			<LineString>
				<tessellate>1</tessellate>
				<coordinates>-74.101482,4.647334,0.0 -74.101369,4.647162,0.0</coordinates>
			</LineString>
		</Placemark>
		<Placemark>
			<name>p2</name>
			<styleUrl>#line-00FF00-2-nodesc</styleUrl>
			<LineString>
				<tessellate>1</tessellate>
				<coordinates>-74.101442,4.647361,0.0 -74.101328,4.647189,0.0</coordinates>
			</LineString>
		</Placemark>
		<Placemark>
			<name>p2</name>
			<styleUrl>#line-00FF00-2-nodesc</styleUrl>
			<LineString>
				<tessellate>1</tessellate>
				<coordinates>-74.101413,4.647315,0.0 -74.101326,4.647372,0.0</coordinates>
			</LineString>
		</Placemark>
		<Placemark>
			<name>p2</name>
			<styleUrl>#line-00FF00-2-nodesc</styleUrl>
			<LineString>
				<tessellate>1</tessellate>
				<coordinates>-74.101356,4.647231,0.0 -74.101272,4.647288,0.0</coordinates>
			</LineString>
		</Placemark>
		<Placemark>
			<name>p2</name>
			<styleUrl>#line-00FF00-2-nodesc</styleUrl>
			<LineString>
				<tessellate>1</tessellate>
				<coordinates>-74.101368,4.647685,0.0 -74.101289,4.647565,0.0</coordinates>
			</LineString>
		</Placemark>
		<Placemark>
			<name>p2</name>
			<styleUrl>#line-00FF00-2-nodesc</styleUrl>
			<LineString>
				<tessellate>1</tessellate>
				<coordinates>-74.101315,4.647792,0.0 -74.101257,4.647706,0.0</coordinates>
			</LineString>
		</Placemark>
		<Placemark>
			<name>p2</name>
			<styleUrl>#line-00FF00-2-nodesc</styleUrl>
			<LineString>
				<tessellate>1</tessellate>
				<coordinates>-74.101278,4.647814,0.0 -74.101219,4.647728,0.0</coordinates>
			</LineString>
		</Placemark>
		<Placemark>
			<name>p2</name>
			<styleUrl>#line-00FF00-2-nodesc</styleUrl>
			<LineString>
				<tessellate>1</tessellate>
				<coordinates>-74.101238,4.647841,0.0 -74.101181,4.647754,0.0</coordinates>
			</LineString>
		</Placemark>
		<Placemark>
			<name>p2</name>
			<styleUrl>#line-00FF00-2-nodesc</styleUrl>
			<LineString>
				<tessellate>1</tessellate>
				<coordinates>-74.101198,4.647867,0.0 -74.101138,4.647781,0.0</coordinates>
			</LineString>
		</Placemark>
		<Placemark>
			<name>p2</name>
			<styleUrl>#line-00FF00-2-nodesc</styleUrl>
			<LineString>
				<tessellate>1</tessellate>
				<coordinates>-74.101156,4.647897,0.0 -74.101098,4.647807,0.0</coordinates>
			</LineString>
		</Placemark>
		<Placemark>
			<name>p2</name>
			<styleUrl>#line-00FF00-2-nodesc</styleUrl>
			<LineString>
				<tessellate>1</tessellate>
				<coordinates>-74.101115,4.647921,0.0 -74.101056,4.647834,0.0</coordinates>
			</LineString>
		</Placemark>
		<Placemark>
			<name>p2</name>
			<styleUrl>#line-00FF00-2-nodesc</styleUrl>
			<LineString>
				<tessellate>1</tessellate>
				<coordinates>-74.101075,4.647948,0.0 -74.101017,4.647863,0.0</coordinates>
			</LineString>
		</Placemark>
		<Placemark>
			<name>p2</name>
			<styleUrl>#line-00FF00-2-nodesc</styleUrl>
			<LineString>
				<tessellate>1</tessellate>
				<coordinates>-74.101033,4.647974,0.0 -74.100976,4.647888,0.0</coordinates>
			</LineString>
		</Placemark>
		<Placemark>
			<name>p2</name>
			<styleUrl>#line-00FF00-2-nodesc</styleUrl>
			<LineString>
				<tessellate>1</tessellate>
				<coordinates>-74.100992,4.648001,0.0 -74.100935,4.647915,0.0</coordinates>
			</LineString>
		</Placemark>
		<Placemark>
			<name>p2</name>
			<styleUrl>#line-00FF00-2-nodesc</styleUrl>
			<LineString>
				<tessellate>1</tessellate>
				<coordinates>-74.100938,4.648014,0.0 -74.100902,4.647968,0.0</coordinates>
			</LineString>
		</Placemark>
		<Placemark>
			<name>p2</name>
			<styleUrl>#line-00FF00-2-nodesc</styleUrl>
			<LineString>
				<tessellate>1</tessellate>
				<coordinates>-74.100858,4.647949,0.0 -74.100797,4.647993,0.0</coordinates>
			</LineString>
		</Placemark>
		<Placemark>
			<name>p2</name>
			<styleUrl>#line-00FF00-2-nodesc</styleUrl>
			<LineString>
				<tessellate>1</tessellate>
				<coordinates>-74.100881,4.64798,0.0 -74.100817,4.648024,0.0</coordinates>
			</LineString>
		</Placemark>
		<Placemark>
			<name>p2</name>
			<styleUrl>#line-00FF00-2-nodesc</styleUrl>
			<LineString>
				<tessellate>1</tessellate>
				<coordinates>-74.100559,4.647492,0.0 -74.100495,4.647535,0.0</coordinates>
			</LineString>
		</Placemark>
		<Placemark>
			<name>p2</name>
			<styleUrl>#line-00FF00-2-nodesc</styleUrl>
			<LineString>
				<tessellate>1</tessellate>
				<coordinates>-74.100548,4.647474,0.0 -74.10052,4.647492,0.0 -74.100513,4.647483,0.0 -74.100542,4.647464,0.0</coordinates>
			</LineString>
		</Placemark>
		<Placemark>
			<name>p2</name>
			<styleUrl>#line-00FF00-2-nodesc</styleUrl>
			<LineString>
				<tessellate>1</tessellate>
				<coordinates>-74.100513,4.647484,0.0 -74.100479,4.647505,0.0</coordinates>
			</LineString>
		</Placemark>
		<Placemark>
			<name>p2</name>
			<styleUrl>#line-00FF00-2-nodesc</styleUrl>
			<LineString>
				<tessellate>1</tessellate>
				<coordinates>-74.100556,4.647348,0.0 -74.100614,4.647435,0.0</coordinates>
			</LineString>
		</Placemark>
		<Placemark>
			<name>p2</name>
			<styleUrl>#line-00FF00-2-nodesc</styleUrl>
			<LineString>
				<tessellate>1</tessellate>
				<coordinates>-74.100596,4.647321,0.0 -74.100655,4.647409,0.0</coordinates>
			</LineString>
		</Placemark>
		<Placemark>
			<name>p2</name>
			<styleUrl>#line-00FF00-2-nodesc</styleUrl>
			<LineString>
				<tessellate>1</tessellate>
				<coordinates>-74.100638,4.647295,0.0 -74.100695,4.64738,0.0</coordinates>
			</LineString>
		</Placemark>
		<Placemark>
			<name>p2</name>
			<styleUrl>#line-00FF00-2-nodesc</styleUrl>
			<LineString>
				<tessellate>1</tessellate>
				<coordinates>-74.100678,4.647267,0.0 -74.100736,4.647354,0.0</coordinates>
			</LineString>
		</Placemark>
		<Placemark>
			<name>p2</name>
			<styleUrl>#line-00FF00-2-nodesc</styleUrl>
			<LineString>
				<tessellate>1</tessellate>
				<coordinates>-74.100718,4.64724,0.0 -74.100774,4.647326,0.0</coordinates>
			</LineString>
		</Placemark>
		<Placemark>
			<name>p2</name>
			<styleUrl>#line-00FF00-2-nodesc</styleUrl>
			<LineString>
				<tessellate>1</tessellate>
				<coordinates>-74.100758,4.647214,0.0 -74.100815,4.6473,0.0</coordinates>
			</LineString>
		</Placemark>
		<Placemark>
			<name>p2</name>
			<styleUrl>#line-00FF00-2-nodesc</styleUrl>
			<LineString>
				<tessellate>1</tessellate>
				<coordinates>-74.100801,4.647188,0.0 -74.100857,4.647272,0.0</coordinates>
			</LineString>
		</Placemark>
		<Placemark>
			<name>p2</name>
			<styleUrl>#line-00FF00-2-nodesc</styleUrl>
			<LineString>
				<tessellate>1</tessellate>
				<coordinates>-74.100839,4.64716,0.0 -74.100897,4.647246,0.0</coordinates>
			</LineString>
		</Placemark>
		<Placemark>
			<name>p2</name>
			<styleUrl>#line-00FF00-2-nodesc</styleUrl>
			<LineString>
				<tessellate>1</tessellate>
				<coordinates>-74.100878,4.647133,0.0 -74.100936,4.647221,0.0</coordinates>
			</LineString>
		</Placemark>
		<Placemark>
			<name>p2</name>
			<styleUrl>#line-00FF00-2-nodesc</styleUrl>
			<LineString>
				<tessellate>1</tessellate>
				<coordinates>-74.101004,4.647129,0.0 -74.101078,4.647244,0.0</coordinates>
			</LineString>
		</Placemark>
		<Placemark>
			<name>p2</name>
			<styleUrl>#line-00FF00-2-nodesc</styleUrl>
			<LineString>
				<tessellate>1</tessellate>
				<coordinates>-74.100902,4.647417,0.0 -74.100813,4.647478,0.0</coordinates>
			</LineString>
		</Placemark>
		<Placemark>
			<name>p2</name>
			<styleUrl>#line-00FF00-2-nodesc</styleUrl>
			<LineString>
				<tessellate>1</tessellate>
				<coordinates>-74.100926,4.647454,0.0 -74.101039,4.647624,0.0</coordinates>
			</LineString>
		</Placemark>
		<Placemark>
			<name>p2</name>
			<styleUrl>#line-00FF00-2-nodesc</styleUrl>
			<LineString>
				<tessellate>1</tessellate>
				<coordinates>-74.100927,4.647458,0.0 -74.100839,4.647517,0.0</coordinates>
			</LineString>
		</Placemark>
		<Placemark>
			<name>p2</name>
			<styleUrl>#line-00FF00-2-nodesc</styleUrl>
			<LineString>
				<tessellate>1</tessellate>
				<coordinates>-74.100957,4.647499,0.0 -74.100867,4.647556,0.0</coordinates>
			</LineString>
		</Placemark>
		<Placemark>
			<name>p2</name>
			<styleUrl>#line-00FF00-2-nodesc</styleUrl>
			<LineString>
				<tessellate>1</tessellate>
				<coordinates>-74.100894,4.647598,0.0 -74.101235,4.647373,0.0</coordinates>
			</LineString>
		</Placemark>
		<Placemark>
			<name>p2</name>
			<styleUrl>#line-00FF00-2-nodesc</styleUrl>
			<LineString>
				<tessellate>1</tessellate>
				<coordinates>-74.10101,4.647582,0.0 -74.100923,4.64764,0.0</coordinates>
			</LineString>
		</Placemark>
		<Placemark>
			<name>p2</name>
			<styleUrl>#line-00FF00-2-nodesc</styleUrl>
			<LineString>
				<tessellate>1</tessellate>
				<coordinates>-74.101037,4.647625,0.0 -74.10095,4.647685,0.0</coordinates>
			</LineString>
		</Placemark>
		<Placemark>
			<name>p2</name>
			<styleUrl>#line-00FF00-2-nodesc</styleUrl>
			<LineString>
				<tessellate>1</tessellate>
				<coordinates>-74.101065,4.647664,0.0 -74.100978,4.647722,0.0</coordinates>
			</LineString>
		</Placemark>
		<Placemark>
			<name>p2</name>
			<styleUrl>#line-00FF00-2-nodesc</styleUrl>
			<LineString>
				<tessellate>1</tessellate>
				<coordinates>-74.101075,4.6476,0.0 -74.100961,4.64743,0.0</coordinates>
			</LineString>
		</Placemark>
		<Placemark>
			<name>p2</name>
			<styleUrl>#line-00FF00-2-nodesc</styleUrl>
			<LineString>
				<tessellate>1</tessellate>
				<coordinates>-74.101116,4.647573,0.0 -74.101002,4.647403,0.0</coordinates>
			</LineString>
		</Placemark>
		<Placemark>
			<name>p2</name>
			<styleUrl>#line-00FF00-2-nodesc</styleUrl>
			<LineString>
				<tessellate>1</tessellate>
				<coordinates>-74.101154,4.647549,0.0 -74.10104,4.647378,0.0</coordinates>
			</LineString>
		</Placemark>
		<Placemark>
			<name>p2</name>
			<styleUrl>#line-00FF00-2-nodesc</styleUrl>
			<LineString>
				<tessellate>1</tessellate>
				<coordinates>-74.101196,4.647518,0.0 -74.101084,4.647351,0.0</coordinates>
			</LineString>
		</Placemark>
		<Placemark>
			<name>p2</name>
			<styleUrl>#line-00FF00-2-nodesc</styleUrl>
			<LineString>
				<tessellate>1</tessellate>
				<coordinates>-74.101169,4.647477,0.0 -74.101254,4.64742,0.0</coordinates>
			</LineString>
		</Placemark>
		<Placemark>
			<name>p2</name>
			<styleUrl>#line-00FF00-2-nodesc</styleUrl>
			<LineString>
				<tessellate>1</tessellate>
				<coordinates>-74.101109,4.647386,0.0 -74.101194,4.647329,0.0</coordinates>
			</LineString>
		</Placemark>
		<Placemark>
			<name>s2</name>
			<styleUrl>#line-00FF00-2-nodesc</styleUrl>
			<LineString>
				<tessellate>1</tessellate>
				<coordinates>-74.101836,4.647857,0.0 -74.101748,4.647916,0.0</coordinates>
			</LineString>
		</Placemark>
		<Placemark>
			<name>s2</name>
			<styleUrl>#line-00FF00-2-nodesc</styleUrl>
			<LineString>
				<tessellate>1</tessellate>
				<coordinates>-74.102111,4.647451,0.0 -74.102146,4.647503,0.0</coordinates>
			</LineString>
		</Placemark>
		<Placemark>
			<name>s2</name>
			<styleUrl>#line-00FF00-2-nodesc</styleUrl>
			<LineString>
				<tessellate>1</tessellate>
				<coordinates>-74.102123,4.64747,0.0 -74.102105,4.647481,0.0</coordinates>
			</LineString>
		</Placemark>
		<Style id='line-00FF00-2-nodesc-normal'>
			<LineStyle>
				<color>ff00FF00</color>
				<width>2</width>
			</LineStyle>
			<BalloonStyle>
				<text><![CDATA[<h3>$[name]</h3>]]></text>
			</BalloonStyle>
		</Style>
		<Style id='line-00FF00-2-nodesc-highlight'>
			<LineStyle>
				<color>ff00FF00</color>
				<width>3.0</width>
			</LineStyle>
			<BalloonStyle>
				<text><![CDATA[<h3>$[name]</h3>]]></text>
			</BalloonStyle>
		</Style>
		<StyleMap id='line-00FF00-2-nodesc'>
			<Pair>
				<key>normal</key>
				<styleUrl>#line-00FF00-2-nodesc-normal</styleUrl>
			</Pair>
			<Pair>
				<key>highlight</key>
				<styleUrl>#line-00FF00-2-nodesc-highlight</styleUrl>
			</Pair>
		</StyleMap>
		<Style id='poly-00FF00-2-76-nodesc-normal'>
			<LineStyle>
				<color>ff00FF00</color>
				<width>2</width>
			</LineStyle>
			<PolyStyle>
				<color>4C00FF00</color>
				<fill>1</fill>
				<outline>1</outline>
			</PolyStyle>
			<BalloonStyle>
				<text><![CDATA[<h3>$[name]</h3>]]></text>
			</BalloonStyle>
		</Style>
		<Style id='poly-00FF00-2-76-nodesc-highlight'>
			<LineStyle>
				<color>ff00FF00</color>
				<width>3.0</width>
			</LineStyle>
			<PolyStyle>
				<color>4C00FF00</color>
				<fill>1</fill>
				<outline>1</outline>
			</PolyStyle>
			<BalloonStyle>
				<text><![CDATA[<h3>$[name]</h3>]]></text>
			</BalloonStyle>
		</Style>
		<StyleMap id='poly-00FF00-2-76-nodesc'>
			<Pair>
				<key>normal</key>
				<styleUrl>#poly-00FF00-2-76-nodesc-normal</styleUrl>
			</Pair>
			<Pair>
				<key>highlight</key>
				<styleUrl>#poly-00FF00-2-76-nodesc-highlight</styleUrl>
			</Pair>
		</StyleMap>
	</Document>
</kml>