<?xml version="1.0" encoding="UTF-8"?>
<kml xmlns="http://www.opengis.net/kml/2.2" xmlns:gx="http://www.google.com/kml/ext/2.2" xmlns:kml="http://www.opengis.net/kml/2.2" xmlns:atom="http://www.w3.org/2005/Atom">
<Document>
	<name>ccge_bog_p3</name>
	<Style id="line-FF0000-2-nodesc-normal">
		<BalloonStyle>
			<text><![CDATA[<h3>$[name]</h3>]]></text>
		</BalloonStyle>
		<LineStyle>
			<color>ff0000ff</color>
			<width>2</width>
		</LineStyle>
	</Style>
	<Style id="poly-FF0000-2-76-nodesc-normal0">
		<BalloonStyle>
			<text><![CDATA[<h3>$[name]</h3>]]></text>
		</BalloonStyle>
		<LineStyle>
			<color>ffff0000</color>
			<width>2</width>
		</LineStyle>
		<PolyStyle>
			<color>4c0000ff</color>
		</PolyStyle>
	</Style>
	<Style id="poly-FF0000-2-76-nodesc-normal">
		<BalloonStyle>
			<text><![CDATA[<h3>$[name]</h3>]]></text>
		</BalloonStyle>
		<LineStyle>
			<color>ffff0000</color>
			<width>2</width>
		</LineStyle>
		<PolyStyle>
			<color>4c0000ff</color>
		</PolyStyle>
	</Style>
	<StyleMap id="mpoly-FF0000-2-76-nodesc-normal0">
		<Pair>
			<key>normal</key>
			<styleUrl>#poly-FF0000-2-76-nodesc-normal0</styleUrl>
		</Pair>
		<Pair>
			<key>highlight</key>
			<styleUrl>#sh_ylw-pushpin3</styleUrl>
		</Pair>
	</StyleMap>
	<Style id="line-FF0000-2-nodesc-highlight">
		<BalloonStyle>
			<text><![CDATA[<h3>$[name]</h3>]]></text>
		</BalloonStyle>
		<LineStyle>
			<color>ff0000ff</color>
			<width>3</width>
		</LineStyle>
	</Style>
	<Style id="poly-FF0000-2-76-nodesc-highlight0">
		<BalloonStyle>
			<text><![CDATA[<h3>$[name]</h3>]]></text>
		</BalloonStyle>
		<LineStyle>
			<color>ffff0000</color>
			<width>3</width>
		</LineStyle>
		<PolyStyle>
			<color>4c0000ff</color>
		</PolyStyle>
	</Style>
	<Style id="poly-FF0000-2-76-nodesc-highlight">
		<BalloonStyle>
			<text><![CDATA[<h3>$[name]</h3>]]></text>
		</BalloonStyle>
		<LineStyle>
			<color>ffff0000</color>
			<width>3</width>
		</LineStyle>
		<PolyStyle>
			<color>4c0000ff</color>
		</PolyStyle>
	</Style>
	<Style id="sn_ylw-pushpin">
		<BalloonStyle>
			<text><![CDATA[<h3>$[name]</h3>]]></text>
		</BalloonStyle>
		<LineStyle>
			<color>ffff0000</color>
			<width>2</width>
		</LineStyle>
		<PolyStyle>
			<color>4c0000ff</color>
		</PolyStyle>
	</Style>
	<Style id="sh_ylw-pushpin">
		<BalloonStyle>
			<text><![CDATA[<h3>$[name]</h3>]]></text>
		</BalloonStyle>
		<LineStyle>
			<color>ffff0000</color>
			<width>3</width>
		</LineStyle>
		<PolyStyle>
			<color>4c0000ff</color>
		</PolyStyle>
	</Style>
	<StyleMap id="mpoly-FF0000-2-76-nodesc-normal00">
		<Pair>
			<key>normal</key>
			<styleUrl>#poly-FF0000-2-76-nodesc-normal0</styleUrl>
		</Pair>
		<Pair>
			<key>highlight</key>
			<styleUrl>#sh_ylw-pushpin1</styleUrl>
		</Pair>
	</StyleMap>
	<Style id="sh_ylw-pushpin0">
		<BalloonStyle>
			<text><![CDATA[<h3>$[name]</h3>]]></text>
		</BalloonStyle>
		<LineStyle>
			<color>ffff0000</color>
			<width>3</width>
		</LineStyle>
	</Style>
	<Style id="sh_ylw-pushpin1">
		<BalloonStyle>
			<text><![CDATA[<h3>$[name]</h3>]]></text>
		</BalloonStyle>
		<LineStyle>
			<color>ff0000ff</color>
			<width>3</width>
		</LineStyle>
		<PolyStyle>
			<color>4c0000ff</color>
		</PolyStyle>
	</Style>
	<StyleMap id="line-FF0000-2-nodesc">
		<Pair>
			<key>normal</key>
			<styleUrl>#line-FF0000-2-nodesc-normal</styleUrl>
		</Pair>
		<Pair>
			<key>highlight</key>
			<styleUrl>#line-FF0000-2-nodesc-highlight</styleUrl>
		</Pair>
	</StyleMap>
	<StyleMap id="line-FF0000-2-nodesc0">
		<Pair>
			<key>normal</key>
			<styleUrl>#line-FF0000-2-nodesc-normal0</styleUrl>
		</Pair>
		<Pair>
			<key>highlight</key>
			<styleUrl>#line-FF0000-2-nodesc-highlight0</styleUrl>
		</Pair>
	</StyleMap>
	<Style id="line-FF0000-2-nodesc-normal0">
		<BalloonStyle>
			<text><![CDATA[<h3>$[name]</h3>]]></text>
		</BalloonStyle>
		<LineStyle>
			<color>ff0000ff</color>
			<width>2</width>
		</LineStyle>
	</Style>
	<StyleMap id="poly-FF0000-2-76-nodesc">
		<Pair>
			<key>normal</key>
			<styleUrl>#poly-FF0000-2-76-nodesc-normal0</styleUrl>
		</Pair>
		<Pair>
			<key>highlight</key>
			<styleUrl>#poly-FF0000-2-76-nodesc-highlight00</styleUrl>
		</Pair>
	</StyleMap>
	<StyleMap id="poly-FF0000-2-76-nodesc0">
		<Pair>
			<key>normal</key>
			<styleUrl>#poly-FF0000-2-76-nodesc-normal</styleUrl>
		</Pair>
		<Pair>
			<key>highlight</key>
			<styleUrl>#poly-FF0000-2-76-nodesc-highlight</styleUrl>
		</Pair>
	</StyleMap>
	<StyleMap id="poly-FF0000-2-76-nodesc1">
		<Pair>
			<key>normal</key>
			<styleUrl>#poly-FF0000-2-76-nodesc-normal00</styleUrl>
		</Pair>
		<Pair>
			<key>highlight</key>
			<styleUrl>#poly-FF0000-2-76-nodesc-highlight0</styleUrl>
		</Pair>
	</StyleMap>
	<Style id="sn_ylw-pushpin0">
		<BalloonStyle>
			<text><![CDATA[<h3>$[name]</h3>]]></text>
		</BalloonStyle>
		<LineStyle>
			<color>ff0000ff</color>
			<width>2</width>
		</LineStyle>
	</Style>
	<StyleMap id="msn_ylw-pushpin0">
		<Pair>
			<key>normal</key>
			<styleUrl>#sn_ylw-pushpin0</styleUrl>
		</Pair>
		<Pair>
			<key>highlight</key>
			<styleUrl>#sh_ylw-pushpin0</styleUrl>
		</Pair>
	</StyleMap>
	<Style id="line-FF0000-2-nodesc-highlight0">
		<BalloonStyle>
			<text><![CDATA[<h3>$[name]</h3>]]></text>
		</BalloonStyle>
		<LineStyle>
			<color>ff0000ff</color>
			<width>3</width>
		</LineStyle>
	</Style>
	<StyleMap id="msn_ylw-pushpin">
		<Pair>
			<key>normal</key>
			<styleUrl>#sn_ylw-pushpin</styleUrl>
		</Pair>
		<Pair>
			<key>highlight</key>
			<styleUrl>#sh_ylw-pushpin2</styleUrl>
		</Pair>
	</StyleMap>
	<Style id="poly-FF0000-2-76-nodesc-highlight00">
		<BalloonStyle>
			<text><![CDATA[<h3>$[name]</h3>]]></text>
		</BalloonStyle>
		<LineStyle>
			<color>ffff0000</color>
			<width>3</width>
		</LineStyle>
		<PolyStyle>
			<color>4c0000ff</color>
		</PolyStyle>
	</Style>
	<StyleMap id="mpoly-FF0000-2-76-nodesc-normal01">
		<Pair>
			<key>normal</key>
			<styleUrl>#poly-FF0000-2-76-nodesc-normal0</styleUrl>
		</Pair>
		<Pair>
			<key>highlight</key>
			<styleUrl>#sh_ylw-pushpin</styleUrl>
		</Pair>
	</StyleMap>
	<Style id="sh_ylw-pushpin2">
		<BalloonStyle>
			<text><![CDATA[<h3>$[name]</h3>]]></text>
		</BalloonStyle>
		<LineStyle>
			<color>ffff0000</color>
			<width>3</width>
		</LineStyle>
		<PolyStyle>
			<color>4c0000ff</color>
		</PolyStyle>
	</Style>
	<Style id="poly-FF0000-2-76-nodesc-normal00">
		<BalloonStyle>
			<text><![CDATA[<h3>$[name]</h3>]]></text>
		</BalloonStyle>
		<LineStyle>
			<color>ffff0000</color>
			<width>2</width>
		</LineStyle>
		<PolyStyle>
			<color>4c0000ff</color>
		</PolyStyle>
	</Style>
	<Style id="sh_ylw-pushpin3">
		<BalloonStyle>
			<text><![CDATA[<h3>$[name]</h3>]]></text>
		</BalloonStyle>
		<LineStyle>
			<color>ffff0000</color>
			<width>3</width>
		</LineStyle>
		<PolyStyle>
			<color>4c0000ff</color>
		</PolyStyle>
	</Style>
	<Placemark>
		<name>s3</name>
		<styleUrl>#mpoly-FF0000-2-76-nodesc-normal0</styleUrl>
		<Polygon>
			<outerBoundaryIs>
				<LinearRing>
					<tessellate>1</tessellate>
					<coordinates>
						-74.10100717352293,4.647375147110643,0 -74.1009957506396,4.647356326433318,0 -74.10090002516068,4.647417239966269,0 -74.10090986864675,4.647434672783724,0 -74.10100717352293,4.647375147110643,0 
					</coordinates>
				</LinearRing>
			</outerBoundaryIs>
		</Polygon>
	</Placemark>
	<Placemark>
		<name>p3</name>
		<styleUrl>#poly-FF0000-2-76-nodesc1</styleUrl>
		<Polygon>
			<outerBoundaryIs>
				<LinearRing>
					<tessellate>1</tessellate>
					<coordinates>
						-74.102884,4.64615,0 -74.10275300000001,4.645946,0 -74.10274200000001,4.645936,0 -74.102726,4.64593,0 -74.10271,4.645929,0 -74.102694,4.64593,0 -74.102681,4.645936,0 -74.10267,4.645943,0 -74.10266,4.645955,0 -74.10265699999999,4.645964,0 -74.102654,4.645978,0 -74.102653,4.645991,0 -74.102655,4.646006,0 -74.102788,4.646213,0 -74.10279900000001,4.646221,0 -74.102808,4.646226,0 -74.10281999999999,4.646229,0 -74.102835,4.646229,0 -74.10284799999999,4.646228,0 -74.102864,4.646217,0 -74.102876,4.646209,0 -74.10288300000001,4.646194,0 -74.10288900000001,4.646177,0 -74.102884,4.64615,0 
					</coordinates>
				</LinearRing>
			</outerBoundaryIs>
		</Polygon>
	</Placemark>
	<Placemark>
		<name>p3</name>
		<styleUrl>#poly-FF0000-2-76-nodesc0</styleUrl>
		<Polygon>
			<outerBoundaryIs>
				<LinearRing>
					<tessellate>1</tessellate>
					<coordinates>
						-74.102429,4.64592,0 -74.10311,4.64698,0 -74.10348999999999,4.646737,0 -74.103433,4.646648,0 -74.103477,4.646621,0 -74.10341,4.646517,0 -74.103431,4.646505,0 -74.103415,4.646459,0 -74.10339399999999,4.646409,0 -74.10337300000001,4.646359,0 -74.10333799999999,4.64629,0 -74.103269,4.646169,0 -74.103219,4.646097,0 -74.103184,4.646045,0 -74.103139,4.645987,0 -74.10309,4.645926,0 -74.103045,4.645878,0 -74.102999,4.645832,0 -74.10297900000001,4.645846,0 -74.10291100000001,4.64574,0 -74.10287,4.645767,0 -74.10281000000001,4.645677,0 -74.102531,4.645854,0 -74.102588,4.645945,0 -74.102738,4.645851,0 -74.102968,4.646213,0 -74.10305099999999,4.646163,0 -74.103047,4.646156,0 -74.10318700000001,4.64607,0 -74.10325899999999,4.646176,0 -74.103298,4.64624,0 -74.103216,4.64629,0 -74.103234,4.64632,0 -74.103241,4.646316,0 -74.103278,4.646369,0 -74.103302,4.646356,0 -74.103332,4.646402,0 -74.103368,4.646379,0 -74.10341699999999,4.646498,0 -74.103397,4.646509,0 -74.103441,4.646579,0 -74.10339999999999,4.646605,0 -74.103144,4.646205,0 -74.10309700000001,4.646235,0 -74.103093,4.64623,0 -74.103013,4.646281,0 -74.10329900000001,4.646728,0 -74.10308000000001,4.646868,0 -74.10313600000001,4.646955,0 -74.103111,4.646972,0 -74.103049,4.646875,0 -74.103137,4.646818,0 -74.102557,4.645914,0 -74.10250600000001,4.645945,0 -74.102507,4.645949,0 -74.102473,4.645972,0 -74.102453,4.645944,0 -74.10248900000001,4.645921,0 -74.10250000000001,4.645938,0 -74.10255992303446,4.645900441011395,0 -74.10253096346794,4.64585407169688,0 -74.102429,4.64592,0 
					</coordinates>
				</LinearRing>
			</outerBoundaryIs>
		</Polygon>
	</Placemark>
	<Placemark>
		<name>p3</name>
		<styleUrl>#poly-FF0000-2-76-nodesc1</styleUrl>
		<Polygon>
			<outerBoundaryIs>
				<LinearRing>
					<tessellate>1</tessellate>
					<coordinates>
						-74.102935,4.646227,0 -74.10290000000001,4.646252,0 -74.102893,4.646243,0 -74.10286499999999,4.646261,0 -74.10287099999999,4.646271,0 -74.102835,4.646292,0 -74.102923,4.646431,0 -74.102929,4.646427,0 -74.102941,4.64645,0 -74.102964,4.646435,0 -74.10295600000001,4.646425,0 -74.102964,4.64642,0 -74.10296099999999,4.646416,0 -74.10299500000001,4.646396,0 -74.102999,4.6464,0 -74.103005,4.646396,0 -74.10301200000001,4.646406,0 -74.10303399999999,4.64639,0 -74.103019,4.64637,0 -74.10302299999999,4.646365,0 -74.102935,4.646227,0 
					</coordinates>
				</LinearRing>
			</outerBoundaryIs>
		</Polygon>
	</Placemark>
	<Placemark>
		<name>p3</name>
		<styleUrl>#poly-FF0000-2-76-nodesc1</styleUrl>
		<Polygon>
			<outerBoundaryIs>
				<LinearRing>
					<tessellate>1</tessellate>
					<coordinates>
						-74.10307899999999,4.646454,0 -74.103067,4.646444,0 -74.103055,4.646437,0 -74.10304600000001,4.646436,0 -74.103032,4.646433,0 -74.103021,4.646434,0 -74.103008,4.646436,0 -74.102993,4.646448,0 -74.10298400000001,4.646457,0 -74.10298,4.646466,0 -74.102976,4.646479,0 -74.102976,4.646489,0 -74.102976,4.6465,0 -74.102977,4.64651,0 -74.103128,4.646743,0 -74.10313600000001,4.64675,0 -74.103144,4.646754,0 -74.10315300000001,4.646757,0 -74.103165,4.646759,0 -74.10317499999999,4.646759,0 -74.10319,4.646754,0 -74.103201,4.646749,0 -74.103212,4.646742,0 -74.103218,4.646733,0 -74.103223,4.646722,0 -74.103227,4.646709,0 -74.103227,4.646694,0 -74.103225,4.64668,0 -74.10307899999999,4.646454,0 
					</coordinates>
				</LinearRing>
			</outerBoundaryIs>
		</Polygon>
	</Placemark>
	<Placemark>
		<name>p3</name>
		<styleUrl>#poly-FF0000-2-76-nodesc1</styleUrl>
		<Polygon>
			<outerBoundaryIs>
				<LinearRing>
					<tessellate>1</tessellate>
					<coordinates>
						-74.103072,4.64621,0 -74.103072,4.646202,0 -74.103067,4.646191,0 -74.103058,4.646188,0 -74.10305,4.646189,0 -74.102993,4.646224,0 -74.10299000000001,4.646229,0 -74.102988,4.646236,0 -74.102991,4.646243,0 -74.10299500000001,4.646248,0 -74.103002,4.646254,0 -74.103011,4.646254,0 -74.10306900000001,4.646217,0 -74.103072,4.64621,0 
					</coordinates>
				</LinearRing>
			</outerBoundaryIs>
		</Polygon>
	</Placemark>
	<Placemark>
		<name>s3</name>
		<styleUrl>#line-FF0000-2-nodesc0</styleUrl>
		<LineString>
			<tessellate>1</tessellate>
			<coordinates>
				-74.103087,4.646741,0 -74.10299500000001,4.6468,0 
			</coordinates>
		</LineString>
	</Placemark>
	<Placemark>
		<name>s3</name>
		<styleUrl>#line-FF0000-2-nodesc0</styleUrl>
		<LineString>
			<tessellate>1</tessellate>
			<coordinates>
				-74.103031,4.646653,0 -74.10293900000001,4.646712,0 
			</coordinates>
		</LineString>
	</Placemark>
	<Placemark>
		<name>s3</name>
		<styleUrl>#line-FF0000-2-nodesc0</styleUrl>
		<LineString>
			<tessellate>1</tessellate>
			<coordinates>
				-74.103005,4.646614,0 -74.102913,4.646672,0 
			</coordinates>
		</LineString>
	</Placemark>
	<Placemark>
		<name>s3</name>
		<styleUrl>#line-FF0000-2-nodesc0</styleUrl>
		<LineString>
			<tessellate>1</tessellate>
			<coordinates>
				-74.102975,4.646566,0 -74.10288199999999,4.646625,0 
			</coordinates>
		</LineString>
	</Placemark>
	<Placemark>
		<name>s3</name>
		<styleUrl>#line-FF0000-2-nodesc0</styleUrl>
		<LineString>
			<tessellate>1</tessellate>
			<coordinates>
				-74.102919,4.646479,0 -74.10282700000001,4.646538,0 
			</coordinates>
		</LineString>
	</Placemark>
	<Placemark>
		<name>s3</name>
		<styleUrl>#line-FF0000-2-nodesc0</styleUrl>
		<LineString>
			<tessellate>1</tessellate>
			<coordinates>
				-74.102891,4.646435,0 -74.10279800000001,4.646494,0 
			</coordinates>
		</LineString>
	</Placemark>
	<Placemark>
		<name>s3</name>
		<styleUrl>#line-FF0000-2-nodesc0</styleUrl>
		<LineString>
			<tessellate>1</tessellate>
			<coordinates>
				-74.102862,4.64639,0 -74.102769,4.64645,0 
			</coordinates>
		</LineString>
	</Placemark>
	<Placemark>
		<name>s3</name>
		<styleUrl>#line-FF0000-2-nodesc0</styleUrl>
		<LineString>
			<tessellate>1</tessellate>
			<coordinates>
				-74.102835,4.646347,0 -74.10274200000001,4.646406,0 
			</coordinates>
		</LineString>
	</Placemark>
	<Placemark>
		<name>s3</name>
		<styleUrl>#line-FF0000-2-nodesc0</styleUrl>
		<LineString>
			<tessellate>1</tessellate>
			<coordinates>
				-74.102806,4.646303,0 -74.10271400000001,4.646362,0 
			</coordinates>
		</LineString>
	</Placemark>
	<Placemark>
		<name>s3</name>
		<styleUrl>#line-FF0000-2-nodesc0</styleUrl>
		<LineString>
			<tessellate>1</tessellate>
			<coordinates>
				-74.102778,4.646259,0 -74.10268499999999,4.646318,0 
			</coordinates>
		</LineString>
	</Placemark>
	<Placemark>
		<name>s3</name>
		<styleUrl>#line-FF0000-2-nodesc0</styleUrl>
		<LineString>
			<tessellate>1</tessellate>
			<coordinates>
				-74.10275,4.646215,0 -74.10265699999999,4.646275,0 
			</coordinates>
		</LineString>
	</Placemark>
	<Placemark>
		<name>s3</name>
		<styleUrl>#line-FF0000-2-nodesc0</styleUrl>
		<LineString>
			<tessellate>1</tessellate>
			<coordinates>
				-74.102722,4.646171,0 -74.10262899999999,4.646231,0 
			</coordinates>
		</LineString>
	</Placemark>
	<Placemark>
		<name>s3</name>
		<styleUrl>#line-FF0000-2-nodesc0</styleUrl>
		<LineString>
			<tessellate>1</tessellate>
			<coordinates>
				-74.102609,4.645996,0 -74.10251599999999,4.646055,0 
			</coordinates>
		</LineString>
	</Placemark>
	<Placemark>
		<name>s3</name>
		<styleUrl>#line-FF0000-2-nodesc0</styleUrl>
		<LineString>
			<tessellate>1</tessellate>
			<coordinates>
				-74.10257900000001,4.64595,0 -74.102529,4.645981,0 -74.102508,4.645949,0 
			</coordinates>
		</LineString>
	</Placemark>
	<Placemark>
		<name>s3</name>
		<styleUrl>#line-FF0000-2-nodesc0</styleUrl>
		<LineString>
			<tessellate>1</tessellate>
			<coordinates>
				-74.102529,4.645981,0 -74.102487,4.646007,0 
			</coordinates>
		</LineString>
	</Placemark>
	<Placemark>
		<name>s3</name>
		<styleUrl>#line-FF0000-2-nodesc0</styleUrl>
		<LineString>
			<tessellate>1</tessellate>
			<coordinates>
				-74.10249,4.645922,0 -74.10247,4.645893,0 
			</coordinates>
		</LineString>
	</Placemark>
	<Placemark>
		<name>s3</name>
		<styleUrl>#line-FF0000-2-nodesc0</styleUrl>
		<LineString>
			<tessellate>1</tessellate>
			<coordinates>
				-74.10273700000001,4.645851,0 -74.10268000000001,4.64576,0 
			</coordinates>
		</LineString>
	</Placemark>
	<Placemark>
		<name>s3</name>
		<styleUrl>#line-FF0000-2-nodesc0</styleUrl>
		<LineString>
			<tessellate>1</tessellate>
			<coordinates>
				-74.10287,4.645767,0 -74.102818,4.6458,0 -74.102875,4.645889,0 -74.102795,4.645939,0 
			</coordinates>
		</LineString>
	</Placemark>
	<Placemark>
		<name>s3</name>
		<styleUrl>#line-FF0000-2-nodesc0</styleUrl>
		<LineString>
			<tessellate>1</tessellate>
			<coordinates>
				-74.102851,4.646027,0 -74.102931,4.645976,0 -74.102875,4.645889,0 
			</coordinates>
		</LineString>
	</Placemark>
	<Placemark>
		<name>s3</name>
		<styleUrl>#line-FF0000-2-nodesc0</styleUrl>
		<LineString>
			<tessellate>1</tessellate>
			<coordinates>
				-74.103047,4.646156,0 -74.103016,4.646109,0 -74.102935,4.64616,0 
			</coordinates>
		</LineString>
	</Placemark>
	<Placemark>
		<name>s3</name>
		<styleUrl>#line-FF0000-2-nodesc0</styleUrl>
		<LineString>
			<tessellate>1</tessellate>
			<coordinates>
				-74.10317000000001,4.646246,0 -74.103042,4.646327,0 
			</coordinates>
		</LineString>
	</Placemark>
	<Placemark>
		<name>s3</name>
		<styleUrl>#line-FF0000-2-nodesc0</styleUrl>
		<LineString>
			<tessellate>1</tessellate>
			<coordinates>
				-74.10307400000001,4.646377,0 -74.103202,4.646295,0 
			</coordinates>
		</LineString>
	</Placemark>
	<Placemark>
		<name>s3</name>
		<styleUrl>#line-FF0000-2-nodesc0</styleUrl>
		<LineString>
			<tessellate>1</tessellate>
			<coordinates>
				-74.10323200000001,4.646342,0 -74.103105,4.646424,0 
			</coordinates>
		</LineString>
	</Placemark>
	<Placemark>
		<name>s3</name>
		<styleUrl>#line-FF0000-2-nodesc0</styleUrl>
		<LineString>
			<tessellate>1</tessellate>
			<coordinates>
				-74.10325899999999,4.646384,0 -74.103132,4.646466,0 
			</coordinates>
		</LineString>
	</Placemark>
	<Placemark>
		<name>s3</name>
		<styleUrl>#line-FF0000-2-nodesc0</styleUrl>
		<LineString>
			<tessellate>1</tessellate>
			<coordinates>
				-74.10329,4.646434,0 -74.103163,4.646515,0 
			</coordinates>
		</LineString>
	</Placemark>
	<Placemark>
		<name>s3</name>
		<styleUrl>#line-FF0000-2-nodesc0</styleUrl>
		<LineString>
			<tessellate>1</tessellate>
			<coordinates>
				-74.10331600000001,4.646474,0 -74.103188,4.646555,0 
			</coordinates>
		</LineString>
	</Placemark>
	<Placemark>
		<name>s3</name>
		<styleUrl>#line-FF0000-2-nodesc0</styleUrl>
		<LineString>
			<tessellate>1</tessellate>
			<coordinates>
				-74.103123,4.646276,0 -74.103353,4.646635,0 -74.10339999999999,4.646604,0 
			</coordinates>
		</LineString>
	</Placemark>
	<Placemark>
		<name>s3</name>
		<styleUrl>#line-FF0000-2-nodesc0</styleUrl>
		<LineString>
			<tessellate>1</tessellate>
			<coordinates>
				-74.103353,4.646635,0 -74.103382,4.646679,0 -74.103433,4.646648,0 
			</coordinates>
		</LineString>
	</Placemark>
	<Placemark>
		<name>p3</name>
		<styleUrl>#msn_ylw-pushpin</styleUrl>
		<Polygon>
			<outerBoundaryIs>
				<LinearRing>
					<tessellate>1</tessellate>
					<coordinates>
						-74.10232000000001,4.647518,0 -74.102332,4.64751,0 -74.10229800000001,4.64746,0 -74.102277,4.647474,0 -74.102266,4.647456,0 -74.102299,4.647435,0 -74.102262,4.647377,0 -74.10223600000001,4.647394,0 -74.102203,4.647346,0 -74.102161,4.647372,0 -74.102036,4.647177,0 -74.102114,4.647122,0 -74.101855,4.646713,0 -74.10177,4.646765,0 -74.10169000000001,4.646644,0 -74.10135689482007,4.646858966071268,0 -74.10115083200981,4.646992408184938,0 -74.10118360078283,4.647043811429736,0 -74.10101392415542,4.647152510046325,0 -74.1009807789967,4.647101354254133,0 -74.10051500490532,4.647395341070949,0 -74.10052664722618,4.647413906776381,0 -74.10048386964347,4.647440338708058,0 -74.10050065381742,4.647465301565394,0 -74.10046022751376,4.647493277456299,0 -74.10061411163163,4.647733669736073,0 -74.10066052438366,4.647706553646773,0 -74.1007123505804,4.647784975152217,0 -74.10066677713392,4.647816159943838,0 -74.10082259909527,4.648056533971502,0 -74.10086260409824,4.648032011854991,0 -74.10088061912475,4.648055636712148,0 -74.10092314426335,4.648030530437874,0 -74.10093714280714,4.64804788670117,0 -74.10139885004922,4.647753449594521,0 -74.10136707759327,4.647699119984276,0 -74.10153323545306,4.647598041496865,0 -74.10152751480678,4.647589367763214,0 -74.10135493570643,4.64769620791955,0 -74.10138912290806,4.647750922590222,0 -74.10093893617075,4.648038214076067,0 -74.10092516804011,4.648020628051914,0 -74.10088267490453,4.648046357451801,0 -74.10086445865996,4.64802275548666,0 -74.10082563683697,4.648045396344173,0 -74.10067612589127,4.647816618757767,0 -74.10071935946029,4.647786545544412,0 -74.10066297219268,4.647699836695085,0 -74.10061605773119,4.647723073435206,0 -74.10046931229937,4.64749407979194,0 -74.10050957838254,4.647470390501036,0 -74.10049271803706,4.647441912219311,0 -74.10053687704294,4.647416973807172,0 -74.10052360460369,4.647396917310358,0 -74.10097930120118,4.647109208432675,0 -74.10101109620557,4.647159614885392,0 -74.10119481546917,4.647048547957191,0 -74.10116336087343,4.6469944269157,0 -74.1013610687243,4.646869351487585,0 -74.10143449777698,4.646982516651358,0 -74.10122300000001,4.647112,0 -74.101275,4.647194,0 -74.101068,4.647323,0 -74.101018,4.647244,0 -74.10097,4.647278,0 -74.10105,4.647403,0 -74.10126,4.647275,0 -74.101288,4.647315,0 -74.10133401535239,4.64728671682542,0 -74.10131731204814,4.647261191533513,0 -74.101614,4.647067,0 -74.101501,4.646889,0 -74.101659,4.646788,0 -74.102097,4.647472,0 -74.10218999999999,4.647416,0 -74.102164,4.64738,0 -74.1022,4.647358,0 -74.102234,4.647407,0 -74.10226,4.647392,0 -74.102284,4.647431,0 -74.102255,4.647452,0 -74.102277,4.647485,0 -74.10229800000001,4.647471,0 -74.102322,4.647508,0 -74.10230799999999,4.647516,0 -74.102335,4.647556,0 -74.102295,4.647582,0 -74.102242,4.6475,0 -74.102153,4.647557,0 -74.102307,4.647797,0 -74.10214556054262,4.647896063572366,0 -74.10209582804382,4.647818574956699,0 -74.10192405008313,4.647926906265375,0 -74.10194027325728,4.647950976598846,0 -74.10184375074518,4.648013905397446,0 -74.10209604185549,4.648403758777719,0 -74.10265708075085,4.6480436858209,0 -74.10262654447641,4.647996005598976,0 -74.10265596202773,4.647978068162952,0 -74.10270392321007,4.648051776345906,0 -74.10268052610654,4.64806456154458,0 -74.10271559256896,4.648123331782688,0 -74.10211398207508,4.648503086947587,0 -74.10201422001317,4.648347652331785,0 -74.10197620293607,4.64836589869423,0 -74.10175596004278,4.648026380087592,0 -74.10178727717602,4.648004701066217,0 -74.1017598066625,4.647959541668967,0 -74.1020645552338,4.647768322945821,0 -74.10169079016755,4.647187629010885,0 -74.10141,4.647367,0 -74.10145900000001,4.647443,0 -74.101444,4.647452,0 -74.10138085854507,4.647351911360644,0 -74.10133525290517,4.647380606328349,0 -74.101361,4.647425,0 -74.101153,4.647559,0 -74.10123400000001,4.647688,0 -74.101282,4.647656,0 -74.10123,4.647576,0 -74.10127,4.64755,0 -74.101348,4.647672,0 -74.101513,4.647566,0 -74.1017533317744,4.647962854064685,0 -74.10177689769178,4.648002964048322,0 -74.10174699821296,4.648025556279459,0 -74.10197372006174,4.648376482487329,0 -74.1020108943905,4.648357069006741,0 -74.10211176844922,4.648512289037829,0 -74.10272516481413,4.648125666901546,0 -74.10268982279465,4.648066469155004,0 -74.10271185227634,4.648055195410531,0 -74.10265812410133,4.64796925010699,0 -74.10262299999999,4.647991,0 -74.10232000000001,4.647518,0 
					</coordinates>
				</LinearRing>
			</outerBoundaryIs>
		</Polygon>
	</Placemark>
	<Placemark>
		<name>s3</name>
		<styleUrl>#mpoly-FF0000-2-76-nodesc-normal01</styleUrl>
		<Polygon>
			<outerBoundaryIs>
				<LinearRing>
					<tessellate>1</tessellate>
					<coordinates>
						-74.10119320977213,4.6474652891043,0 -74.10118762077946,4.647457103417876,0 -74.10111643279767,4.647500418617684,0 -74.10112255017477,4.647509464031387,0 -74.10119320977213,4.6474652891043,0 
					</coordinates>
				</LinearRing>
			</outerBoundaryIs>
		</Polygon>
	</Placemark>
	<Placemark>
		<name>s3</name>
		<styleUrl>#mpoly-FF0000-2-76-nodesc-normal01</styleUrl>
		<Polygon>
			<outerBoundaryIs>
				<LinearRing>
					<tessellate>1</tessellate>
					<coordinates>
						-74.10116759264021,4.647450298078064,0 -74.10115568389865,4.647430719586046,0 -74.10109500644008,4.647467237724859,0 -74.10110797805103,4.647488534188017,0 -74.10116759264021,4.647450298078064,0 
					</coordinates>
				</LinearRing>
			</outerBoundaryIs>
		</Polygon>
	</Placemark>
	<Placemark>
		<name>s3</name>
		<styleUrl>#mpoly-FF0000-2-76-nodesc-normal01</styleUrl>
		<Polygon>
			<outerBoundaryIs>
				<LinearRing>
					<tessellate>1</tessellate>
					<coordinates>
						-74.10115829894241,4.647410895886503,0 -74.10115252816392,4.647403417769497,0 -74.10108069462028,4.647446736892301,0 -74.10108645140305,4.647454190875753,0 -74.10115829894241,4.647410895886503,0 
					</coordinates>
				</LinearRing>
			</outerBoundaryIs>
		</Polygon>
	</Placemark>
	<Placemark>
		<name>s3</name>
		<styleUrl>#mpoly-FF0000-2-76-nodesc-normal01</styleUrl>
		<Polygon>
			<outerBoundaryIs>
				<LinearRing>
					<tessellate>1</tessellate>
					<coordinates>
						-74.10128872782693,4.647373864782396,0 -74.10127560729794,4.647354267427265,0 -74.101203557689,4.647398090094291,0 -74.10121627388111,4.647418618788974,0 -74.10128872782693,4.647373864782396,0 
					</coordinates>
				</LinearRing>
			</outerBoundaryIs>
		</Polygon>
	</Placemark>
	<Placemark>
		<name>s3</name>
		<styleUrl>#poly-FF0000-2-76-nodesc1</styleUrl>
		<Polygon>
			<outerBoundaryIs>
				<LinearRing>
					<tessellate>1</tessellate>
					<coordinates>
						-74.102103,4.647485,0 -74.10212799999999,4.647521,0 -74.102148,4.647507,0 -74.102161,4.647525,0 -74.102227,4.647484,0 -74.10221199999999,4.647459,0 -74.102226,4.647449,0 -74.102205,4.647419,0 -74.102103,4.647485,0 
					</coordinates>
				</LinearRing>
			</outerBoundaryIs>
		</Polygon>
	</Placemark>
	<Placemark>
		<name>s3</name>
		<styleUrl>#poly-FF0000-2-76-nodesc1</styleUrl>
		<Polygon>
			<outerBoundaryIs>
				<LinearRing>
					<tessellate>1</tessellate>
					<coordinates>
						-74.101596,4.646864,0 -74.101568,4.646904,0 -74.101573,4.64695,0 -74.101781,4.647274,0 -74.101823,4.6473,0 -74.101865,4.647298,0 -74.101861,4.647286,0 -74.101868,4.647283,0 -74.10187500000001,4.647291,0 -74.1019,4.647251,0 -74.10189,4.647208,0 -74.10168,4.646882,0 -74.101643,4.646854,0 -74.101596,4.646864,0 
					</coordinates>
				</LinearRing>
			</outerBoundaryIs>
		</Polygon>
	</Placemark>
	<Placemark>
		<name>s3</name>
		<styleUrl>#poly-FF0000-2-76-nodesc1</styleUrl>
		<Polygon>
			<outerBoundaryIs>
				<LinearRing>
					<tessellate>1</tessellate>
					<coordinates>
						-74.10194300000001,4.647292,0 -74.101905,4.647316,0 -74.1019,4.647311,0 -74.101874,4.647327,0 -74.10187999999999,4.647333,0 -74.101837,4.64736,0 -74.102043,4.647681,0 -74.102054,4.647673,0 -74.10209,4.647727,0 -74.10212,4.647749,0 -74.10215700000001,4.647741,0 -74.102183,4.647707,0 -74.102178,4.647671,0 -74.102142,4.64762,0 -74.102149,4.647613,0 -74.10194300000001,4.647292,0 
					</coordinates>
				</LinearRing>
			</outerBoundaryIs>
		</Polygon>
	</Placemark>
	<Placemark>
		<name>s3</name>
		<styleUrl>#poly-FF0000-2-76-nodesc1</styleUrl>
		<Polygon>
			<outerBoundaryIs>
				<LinearRing>
					<tessellate>1</tessellate>
					<coordinates>
						-74.10154,4.647236,0 -74.10161100000001,4.647191,0 -74.101625,4.647171,0 -74.10162200000001,4.647152,0 -74.10159899999999,4.647131,0 -74.10157599999999,4.647135,0 -74.10150299999999,4.647186,0 -74.101432,4.64723,0 -74.10141900000001,4.647253,0 -74.10142399999999,4.647277,0 -74.101445,4.64729,0 -74.10146400000001,4.647286,0 -74.10154,4.647236,0 
					</coordinates>
				</LinearRing>
			</outerBoundaryIs>
		</Polygon>
	</Placemark>
	<Placemark>
		<name>s3</name>
		<styleUrl>#poly-FF0000-2-76-nodesc1</styleUrl>
		<Polygon>
			<outerBoundaryIs>
				<LinearRing>
					<tessellate>1</tessellate>
					<coordinates>
						-74.101285,4.647744,0 -74.101253,4.6477,0 -74.10103599999999,4.647838,0 -74.10106399999999,4.647885,0 -74.101285,4.647744,0 
					</coordinates>
				</LinearRing>
			</outerBoundaryIs>
		</Polygon>
	</Placemark>
	<Placemark>
		<name>s3</name>
		<styleUrl>#poly-FF0000-2-76-nodesc1</styleUrl>
		<Polygon>
			<outerBoundaryIs>
				<LinearRing>
					<tessellate>1</tessellate>
					<coordinates>
						-74.100966,4.647254,0 -74.100938,4.64721,0 -74.100719,4.647349,0 -74.100748,4.647391,0 -74.100966,4.647254,0 
					</coordinates>
				</LinearRing>
			</outerBoundaryIs>
		</Polygon>
	</Placemark>
	<Placemark>
		<name>s3</name>
		<styleUrl>#mpoly-FF0000-2-76-nodesc-normal00</styleUrl>
		<Polygon>
			<outerBoundaryIs>
				<LinearRing>
					<tessellate>1</tessellate>
					<coordinates>
						-74.100771,4.647402,0 -74.10071230582793,4.647438901463813,0 -74.10074670538437,4.647487299935459,0 -74.10071483991123,4.647462746024319,0 -74.10068445434565,4.647465777929264,0 -74.10066079570176,4.647493085134949,0 -74.10066266162778,4.647531855422004,0 -74.1008736662929,4.647854714681628,0 -74.10090795171102,4.647874214104397,0 -74.10094160506696,4.647866627264123,0 -74.10096000931284,4.647839160889821,0 -74.10095010097123,4.647799935729791,0 -74.10097741233433,4.647845775601866,0 -74.10103599999999,4.64781,0 -74.1009302735018,4.647648175076238,0 -74.100894,4.647644,0 -74.10088035779668,4.64765247915864,0 -74.1008510223313,4.647605251290753,0 -74.10086353368287,4.647597044867436,0 -74.100875,4.647563,0 -74.100771,4.647402,0 
					</coordinates>
				</LinearRing>
			</outerBoundaryIs>
		</Polygon>
	</Placemark>
	<Placemark>
		<name>p3</name>
		<styleUrl>#mpoly-FF0000-2-76-nodesc-normal01</styleUrl>
		<Polygon>
			<outerBoundaryIs>
				<LinearRing>
					<tessellate>1</tessellate>
					<coordinates>
						-74.10132394168254,4.647423873154744,0 -74.10131317597342,4.647407154697637,0 -74.10122368112634,4.6474638156586,0 -74.10123352362805,4.647480998785309,0 -74.10132394168254,4.647423873154744,0 
					</coordinates>
				</LinearRing>
			</outerBoundaryIs>
		</Polygon>
	</Placemark>
	<Placemark>
		<name>s3</name>
		<styleUrl>#mpoly-FF0000-2-76-nodesc-normal01</styleUrl>
		<Polygon>
			<outerBoundaryIs>
				<LinearRing>
					<tessellate>1</tessellate>
					<coordinates>
						-74.10130421980819,4.647395445260443,0 -74.10129806587753,4.647386323488711,0 -74.10120923951374,4.647442087940301,0 -74.10121510642024,4.647450726257809,0 -74.10130421980819,4.647395445260443,0 
					</coordinates>
				</LinearRing>
			</outerBoundaryIs>
		</Polygon>
	</Placemark>
	<Placemark>
		<name>s3</name>
		<styleUrl>#mpoly-FF0000-2-76-nodesc-normal01</styleUrl>
		<Polygon>
			<outerBoundaryIs>
				<LinearRing>
					<tessellate>1</tessellate>
					<coordinates>
						-74.10126692825027,4.647344407574648,0 -74.10126230832431,4.647336790887889,0 -74.10117469229526,4.647389935166722,0 -74.10118046890361,4.647397423587519,0 -74.10126692825027,4.647344407574648,0 
					</coordinates>
				</LinearRing>
			</outerBoundaryIs>
		</Polygon>
	</Placemark>
	<Placemark>
		<name>s3</name>
		<styleUrl>#mpoly-FF0000-2-76-nodesc-normal01</styleUrl>
		<Polygon>
			<outerBoundaryIs>
				<LinearRing>
					<tessellate>1</tessellate>
					<coordinates>
						-74.10125511241363,4.647324351096202,0 -74.10124468670496,4.647307175170202,0 -74.10115643588867,4.647361913484327,0 -74.10116764042522,4.647378332240035,0 -74.10125511241363,4.647324351096202,0 
					</coordinates>
				</LinearRing>
			</outerBoundaryIs>
		</Polygon>
	</Placemark>
	<Placemark>
		<name>p3</name>
		<styleUrl>#mpoly-FF0000-2-76-nodesc-normal01</styleUrl>
		<Polygon>
			<outerBoundaryIs>
				<LinearRing>
					<tessellate>1</tessellate>
					<coordinates>
						-74.10118376236494,4.647435075340533,0 -74.10119469388411,4.647430905984513,0 -74.10119744172376,4.647421318707794,0 -74.10119355289437,4.647413911568756,0 -74.10118438358352,4.647410920226346,0 -74.10117489013324,4.647415448210803,0 -74.10117322137747,4.647423775621167,0 -74.10117540177961,4.647430380409809,0 -74.10118376236494,4.647435075340533,0 
					</coordinates>
				</LinearRing>
			</outerBoundaryIs>
		</Polygon>
	</Placemark>
	<Placemark>
		<name>s3</name>
		<styleUrl>#mpoly-FF0000-2-76-nodesc-normal01</styleUrl>
		<Polygon>
			<outerBoundaryIs>
				<LinearRing>
					<tessellate>1</tessellate>
					<coordinates>
						-74.100954,4.647288,0 -74.10085700000001,4.647349,0 -74.10086994751045,4.647367487758444,0 -74.10096735477077,4.647307926925222,0 -74.100954,4.647288,0 
					</coordinates>
				</LinearRing>
			</outerBoundaryIs>
		</Polygon>
	</Placemark>
	<Placemark>
		<name>s3</name>
		<styleUrl>#mpoly-FF0000-2-76-nodesc-normal0</styleUrl>
		<Polygon>
			<outerBoundaryIs>
				<LinearRing>
					<tessellate>1</tessellate>
					<coordinates>
						-74.10089526079189,4.647369406760712,0 -74.10090909428355,4.647390044428721,0 -74.10094510576612,4.647368586738393,0 -74.1009321630267,4.647348121316192,0 -74.10089526079189,4.647369406760712,0 
					</coordinates>
				</LinearRing>
			</outerBoundaryIs>
		</Polygon>
	</Placemark>
	<Placemark>
		<name>s3</name>
		<styleUrl>#mpoly-FF0000-2-76-nodesc-normal01</styleUrl>
		<Polygon>
			<outerBoundaryIs>
				<LinearRing>
					<tessellate>1</tessellate>
					<coordinates>
						-74.1008072690085,4.647420997589553,0 -74.1008231215143,4.647447028335935,0 -74.10085798105901,4.647424758252911,0 -74.1008417663593,4.647400103493946,0 -74.1008072690085,4.647420997589553,0 
					</coordinates>
				</LinearRing>
			</outerBoundaryIs>
		</Polygon>
	</Placemark>
	<Placemark>
		<name>s3</name>
		<styleUrl>#mpoly-FF0000-2-76-nodesc-normal0</styleUrl>
		<Polygon>
			<outerBoundaryIs>
				<LinearRing>
					<tessellate>1</tessellate>
					<coordinates>
						-74.10104078470241,4.647781885943497,0 -74.10105246741209,4.647799818658147,0 -74.10109763226322,4.647772874714429,0 -74.10108649624578,4.647754578129864,0 -74.10104078470241,4.647781885943497,0 
					</coordinates>
				</LinearRing>
			</outerBoundaryIs>
		</Polygon>
	</Placemark>
	<Placemark>
		<name>s3</name>
		<styleUrl>#mpoly-FF0000-2-76-nodesc-normal0</styleUrl>
		<Polygon>
			<outerBoundaryIs>
				<LinearRing>
					<tessellate>1</tessellate>
					<coordinates>
						-74.1009283046816,4.647618644219334,0 -74.10094087687928,4.647638060252351,0 -74.10099042784599,4.647608118658736,0 -74.10097750744912,4.647588116234793,0 -74.1009283046816,4.647618644219334,0 
					</coordinates>
				</LinearRing>
			</outerBoundaryIs>
		</Polygon>
	</Placemark>
	<Placemark>
		<name>s3</name>
		<styleUrl>#mpoly-FF0000-2-76-nodesc-normal0</styleUrl>
		<Polygon>
			<outerBoundaryIs>
				<LinearRing>
					<tessellate>1</tessellate>
					<coordinates>
						-74.10102145030574,4.64775274041707,0 -74.10103234500588,4.647768136328884,0 -74.10106376611635,4.647748555314674,0 -74.10105409550057,4.647733916077527,0 -74.10102145030574,4.64775274041707,0 
					</coordinates>
				</LinearRing>
			</outerBoundaryIs>
		</Polygon>
	</Placemark>
	<Placemark>
		<name>s3</name>
		<styleUrl>#mpoly-FF0000-2-76-nodesc-normal0</styleUrl>
		<Polygon>
			<outerBoundaryIs>
				<LinearRing>
					<tessellate>1</tessellate>
					<coordinates>
						-74.10099932499126,4.647721304505716,0 -74.10101024273074,4.647740472815169,0 -74.10105837012914,4.647710869164543,0 -74.10104509385927,4.647691559250401,0 -74.10099932499126,4.647721304505716,0 
					</coordinates>
				</LinearRing>
			</outerBoundaryIs>
		</Polygon>
	</Placemark>
	<Placemark>
		<name>s3</name>
		<styleUrl>#mpoly-FF0000-2-76-nodesc-normal0</styleUrl>
		<Polygon>
			<outerBoundaryIs>
				<LinearRing>
					<tessellate>1</tessellate>
					<coordinates>
						-74.10110704730788,4.647700638594272,0 -74.10111808107436,4.647717530008246,0 -74.10115405522799,4.647693701975409,0 -74.10114335033596,4.647677343359412,0 -74.10110704730788,4.647700638594272,0 
					</coordinates>
				</LinearRing>
			</outerBoundaryIs>
		</Polygon>
	</Placemark>
	<Placemark>
		<name>s3</name>
		<styleUrl>#mpoly-FF0000-2-76-nodesc-normal0</styleUrl>
		<Polygon>
			<outerBoundaryIs>
				<LinearRing>
					<tessellate>1</tessellate>
					<coordinates>
						-74.10099471841394,4.647450947107007,0 -74.10095878892203,4.647472844440654,0 -74.10095681545189,4.647498211648027,0 -74.10100477767969,4.6474675079408,0 -74.10099471841394,4.647450947107007,0 
					</coordinates>
				</LinearRing>
			</outerBoundaryIs>
		</Polygon>
	</Placemark>
	<Placemark>
		<name>s3</name>
		<styleUrl>#mpoly-FF0000-2-76-nodesc-normal0</styleUrl>
		<Polygon>
			<outerBoundaryIs>
				<LinearRing>
					<tessellate>1</tessellate>
					<coordinates>
						-74.10087446355215,4.647526496884853,0 -74.1008844979617,4.647542979820988,0 -74.10093090618875,4.647513981055125,0 -74.10090918336051,4.647503076667528,0 -74.10087446355215,4.647526496884853,0 
					</coordinates>
				</LinearRing>
			</outerBoundaryIs>
		</Polygon>
	</Placemark>
	<Placemark>
		<name>s3</name>
		<styleUrl>#mpoly-FF0000-2-76-nodesc-normal0</styleUrl>
		<Polygon>
			<outerBoundaryIs>
				<LinearRing>
					<tessellate>1</tessellate>
					<coordinates>
						-74.1010002511951,4.647530020621829,0 -74.1010118892052,4.647550418429406,0 -74.10104543537769,4.647530064729977,0 -74.10103267130066,4.647510320569927,0 -74.1010002511951,4.647530020621829,0 
					</coordinates>
				</LinearRing>
			</outerBoundaryIs>
		</Polygon>
	</Placemark>
	<Placemark>
		<name>s3</name>
		<styleUrl>#mpoly-FF0000-2-76-nodesc-normal0</styleUrl>
		<Polygon>
			<outerBoundaryIs>
				<LinearRing>
					<tessellate>1</tessellate>
					<coordinates>
						-74.10119725218144,4.647685374969631,0 -74.10111289794428,4.647738055275802,0 -74.10112403381719,4.647756374701791,0 -74.10120885782891,4.647701968059542,0 -74.10119725218144,4.647685374969631,0 
					</coordinates>
				</LinearRing>
			</outerBoundaryIs>
		</Polygon>
	</Placemark>
	<Placemark>
		<name>s3</name>
		<styleUrl>#mpoly-FF0000-2-76-nodesc-normal0</styleUrl>
		<Polygon>
			<outerBoundaryIs>
				<LinearRing>
					<tessellate>1</tessellate>
					<coordinates>
						-74.10109185126262,4.647519670989078,0 -74.10100555060909,4.647573402864727,0 -74.10101692268302,4.647592108929878,0 -74.10110468979161,4.64753832048202,0 -74.10109185126262,4.647519670989078,0 
					</coordinates>
				</LinearRing>
			</outerBoundaryIs>
		</Polygon>
	</Placemark>
	<Placemark>
		<name>s3</name>
		<styleUrl>#mpoly-FF0000-2-76-nodesc-normal0</styleUrl>
		<Polygon>
			<outerBoundaryIs>
				<LinearRing>
					<tessellate>1</tessellate>
					<coordinates>
						-74.1011566647687,4.647622296939172,0 -74.10107428695925,4.647673280473774,0 -74.10108633216164,4.647691839455624,0 -74.10116760636201,4.647641589035066,0 -74.1011566647687,4.647622296939172,0 
					</coordinates>
				</LinearRing>
			</outerBoundaryIs>
		</Polygon>
	</Placemark>
	<Placemark>
		<name>s3</name>
		<styleUrl>#mpoly-FF0000-2-76-nodesc-normal0</styleUrl>
		<Polygon>
			<outerBoundaryIs>
				<LinearRing>
					<tessellate>1</tessellate>
					<coordinates>
						-74.10096629144752,4.647511311724314,0 -74.10097633592326,4.647527833674257,0 -74.10106347110001,4.647474165142213,0 -74.10105285377689,4.647457924748606,0 -74.10096629144752,4.647511311724314,0 
					</coordinates>
				</LinearRing>
			</outerBoundaryIs>
		</Polygon>
	</Placemark>
	<Placemark>
		<name>s3</name>
		<styleUrl>#mpoly-FF0000-2-76-nodesc-normal0</styleUrl>
		<Polygon>
			<outerBoundaryIs>
				<LinearRing>
					<tessellate>1</tessellate>
					<coordinates>
						-74.10102670695939,4.647606195091916,0 -74.10105451553747,4.647612981993363,0 -74.10108259789303,4.647593740787782,0 -74.10107243835215,4.647577022230757,0 -74.10102670695939,4.647606195091916,0 
					</coordinates>
				</LinearRing>
			</outerBoundaryIs>
		</Polygon>
	</Placemark>
	<Placemark>
		<name>s3</name>
		<styleUrl>#mpoly-FF0000-2-76-nodesc-normal0</styleUrl>
		<Polygon>
			<outerBoundaryIs>
				<LinearRing>
					<tessellate>1</tessellate>
					<coordinates>
						-74.10110853444347,4.64763138340868,0 -74.10109590623115,4.647613121427196,0 -74.10106679947066,4.647630671984968,0 -74.10106336428162,4.647658238654839,0 -74.10110853444347,4.64763138340868,0 
					</coordinates>
				</LinearRing>
			</outerBoundaryIs>
		</Polygon>
	</Placemark>
	<Placemark>
		<name>s3</name>
		<styleUrl>#mpoly-FF0000-2-76-nodesc-normal0</styleUrl>
		<Polygon>
			<outerBoundaryIs>
				<LinearRing>
					<tessellate>1</tessellate>
					<coordinates>
						-74.10103362252531,4.647676656857231,0 -74.10100582328114,4.647665640465135,0 -74.10097510061226,4.647685633934363,0 -74.10098799433987,4.647705580076083,0 -74.10103362252531,4.647676656857231,0 
					</coordinates>
				</LinearRing>
			</outerBoundaryIs>
		</Polygon>
	</Placemark>
	<Placemark>
		<name>s3</name>
		<styleUrl>#mpoly-FF0000-2-76-nodesc-normal0</styleUrl>
		<Polygon>
			<outerBoundaryIs>
				<LinearRing>
					<tessellate>1</tessellate>
					<coordinates>
						-74.10101678350819,4.647414777321619,0 -74.10100967823399,4.647416840203674,0 -74.10100581444004,4.647422985757719,0 -74.10100529170033,4.647430877754981,0 -74.10101030891369,4.647435389644493,0 -74.10101709084466,4.647436555108088,0 -74.10102463366066,4.647432715162063,0 -74.10102694057275,4.647425250021614,0 -74.1010232486454,4.647419167959651,0 -74.10101678350819,4.647414777321619,0 
					</coordinates>
				</LinearRing>
			</outerBoundaryIs>
		</Polygon>
	</Placemark>
	<Placemark>
		<name>s3</name>
		<styleUrl>#mpoly-FF0000-2-76-nodesc-normal0</styleUrl>
		<Polygon>
			<outerBoundaryIs>
				<LinearRing>
					<tessellate>1</tessellate>
					<coordinates>
						-74.10099757590811,4.647649608015667,0 -74.10099813079769,4.647624502305925,0 -74.10095120685006,4.647651323595272,0 -74.10096365566815,4.647669303006257,0 -74.10099757590811,4.647649608015667,0 
					</coordinates>
				</LinearRing>
			</outerBoundaryIs>
		</Polygon>
	</Placemark>
	<Placemark>
		<name>s3</name>
		<styleUrl>#mpoly-FF0000-2-76-nodesc-normal01</styleUrl>
		<Polygon>
			<outerBoundaryIs>
				<LinearRing>
					<tessellate>1</tessellate>
					<coordinates>
						-74.1009087811175,4.647587619764316,0 -74.100921125862,4.647607883179608,0 -74.10095907217443,4.64758490680564,0 -74.1009469843119,4.647565047800746,0 -74.1009087811175,4.647587619764316,0 
					</coordinates>
				</LinearRing>
			</outerBoundaryIs>
		</Polygon>
	</Placemark>
	<Placemark>
		<name>s3</name>
		<styleUrl>#mpoly-FF0000-2-76-nodesc-normal0</styleUrl>
		<Polygon>
			<outerBoundaryIs>
				<LinearRing>
					<tessellate>1</tessellate>
					<coordinates>
						-74.10116547399784,4.647680430101707,0 -74.10117548567668,4.647680330898669,0 -74.1011829242384,4.647674926404293,0 -74.10118611912725,4.647665252674027,0 -74.10118193960925,4.647658638384579,0 -74.1011717803477,4.647657292801362,0 -74.10116253553103,4.64766229473712,0 -74.10115990390109,4.647671618441589,0 -74.10116547399784,4.647680430101707,0 
					</coordinates>
				</LinearRing>
			</outerBoundaryIs>
		</Polygon>
	</Placemark>
	<Placemark>
		<name>s3</name>
		<styleUrl>#mpoly-FF0000-2-76-nodesc-normal0</styleUrl>
		<Polygon>
			<outerBoundaryIs>
				<LinearRing>
					<tessellate>1</tessellate>
					<coordinates>
						-74.10107780142585,4.647735856306372,0 -74.10108596221548,4.647735360499334,0 -74.10109369869133,4.647730536314486,0 -74.10109595602701,4.647720702474938,0 -74.10109233668682,4.647713765862416,0 -74.10108222666963,4.647712413931133,0 -74.10107393981132,4.647717588363076,0 -74.10107224101292,4.647727074539082,0 -74.10107780142585,4.647735856306372,0 
					</coordinates>
				</LinearRing>
			</outerBoundaryIs>
		</Polygon>
	</Placemark>
	<Placemark>
		<name>s3</name>
		<styleUrl>#poly-FF0000-2-76-nodesc</styleUrl>
		<Polygon>
			<outerBoundaryIs>
				<LinearRing>
					<tessellate>1</tessellate>
					<coordinates>
						-74.10112326857431,4.647595601139219,0 -74.10112605244756,4.647586888623406,0 -74.10112529190648,4.647579295138999,0 -74.10111801843966,4.647575962840859,0 -74.10111852956551,4.647575947154873,0 -74.10110936510318,4.647577243818506,0 -74.1011050211127,4.647584990372384,0 -74.10110735022516,4.647593544822358,0 -74.10111361247328,4.647597413952733,0 -74.10112326857431,4.647595601139219,0 
					</coordinates>
				</LinearRing>
			</outerBoundaryIs>
		</Polygon>
	</Placemark>
	<Placemark>
		<name>s3</name>
		<styleUrl>#mpoly-FF0000-2-76-nodesc-normal0</styleUrl>
		<Polygon>
			<outerBoundaryIs>
				<LinearRing>
					<tessellate>1</tessellate>
					<coordinates>
						-74.10103345200973,4.647652420682165,0 -74.10104338832241,4.647646186010316,0 -74.10104487803214,4.647637567563771,0 -74.10103910377961,4.647629664265875,0 -74.10102954892854,4.647627979893084,0 -74.10102031244568,4.64763532069828,0 -74.10101987251665,4.647645584359629,0 -74.1010245996024,4.647651832656316,0 -74.10103345200973,4.647652420682165,0 
					</coordinates>
				</LinearRing>
			</outerBoundaryIs>
		</Polygon>
	</Placemark>
	<Placemark>
		<name>s3</name>
		<styleUrl>#mpoly-FF0000-2-76-nodesc-normal0</styleUrl>
		<Polygon>
			<outerBoundaryIs>
				<LinearRing>
					<tessellate>1</tessellate>
					<coordinates>
						-74.10106342226206,4.647495358416058,0 -74.1010547645887,4.647499854513553,0 -74.10105201546445,4.647509073337615,0 -74.10105670641077,4.64751679847266,0 -74.10106604296553,4.647517180177494,0 -74.10107492267171,4.647511801005789,0 -74.10107612788718,4.647505029408201,0 -74.10107232556698,4.647497514125399,0 -74.10106342226206,4.647495358416058,0 
					</coordinates>
				</LinearRing>
			</outerBoundaryIs>
		</Polygon>
	</Placemark>
	<Placemark>
		<name>s3</name>
		<styleUrl>#mpoly-FF0000-2-76-nodesc-normal0</styleUrl>
		<Polygon>
			<outerBoundaryIs>
				<LinearRing>
					<tessellate>1</tessellate>
					<coordinates>
						-74.10099288629846,4.64756375549115,0 -74.10099638404716,4.647553352443425,0 -74.10099069473138,4.647543993587656,0 -74.10098139212241,4.647543607699265,0 -74.10097256341952,4.647548963289461,0 -74.10096840490954,4.64755826327455,0 -74.10097420912059,4.647569047962567,0 -74.10098460753417,4.647568769954791,0 -74.10099288629846,4.64756375549115,0 
					</coordinates>
				</LinearRing>
			</outerBoundaryIs>
		</Polygon>
	</Placemark>
	<Placemark>
		<name>s3</name>
		<LookAt>
			<longitude>-74.10114173686488</longitude>
			<latitude>4.647324144161425</latitude>
			<altitude>0</altitude>
			<heading>-1.941320544313244</heading>
			<tilt>0</tilt>
			<range>64.7022879636323</range>
			<gx:altitudeMode>relativeToSeaFloor</gx:altitudeMode>
		</LookAt>
		<styleUrl>#mpoly-FF0000-2-76-nodesc-normal01</styleUrl>
		<Polygon>
			<outerBoundaryIs>
				<LinearRing>
					<tessellate>1</tessellate>
					<coordinates>
						-74.1012118353493,4.647494284225942,0 -74.10120318819396,4.647480048547761,0 -74.1011328112273,4.647523985688693,0 -74.10114233599673,4.647537639279448,0 -74.1012118353493,4.647494284225942,0 
					</coordinates>
				</LinearRing>
			</outerBoundaryIs>
		</Polygon>
	</Placemark>
	<Placemark>
		<name>s3</name>
		<styleUrl>#mpoly-FF0000-2-76-nodesc-normal01</styleUrl>
		<Polygon>
			<outerBoundaryIs>
				<LinearRing>
					<tessellate>1</tessellate>
					<coordinates>
						-74.10114392927362,4.64739066451761,0 -74.10113498777066,4.647375960564375,0 -74.1010644156605,4.647420401923596,0 -74.10107307064669,4.647434611652934,0 -74.10114392927362,4.64739066451761,0 
					</coordinates>
				</LinearRing>
			</outerBoundaryIs>
		</Polygon>
	</Placemark>
	<Placemark>
		<name>s3</name>
		<styleUrl>#mpoly-FF0000-2-76-nodesc-normal0</styleUrl>
		<Polygon>
			<outerBoundaryIs>
				<LinearRing>
					<tessellate>1</tessellate>
					<coordinates>
						-74.10091847340149,4.647486093948336,0 -74.10092292401745,4.647490928802885,0 -74.10093187967131,4.647490754090003,0 -74.10093684020065,4.647487731139005,0 -74.10094034384375,4.647481065243357,0 -74.10093809646889,4.647474882551195,0 -74.10093165400932,4.647470502384913,0 -74.10092369975294,4.647472333896173,0 -74.10091897939256,4.647478235008648,0 -74.10091847340149,4.647486093948336,0 
					</coordinates>
				</LinearRing>
			</outerBoundaryIs>
		</Polygon>
	</Placemark>
	<Placemark>
		<name>s3</name>
		<styleUrl>#mpoly-FF0000-2-76-nodesc-normal01</styleUrl>
		<Polygon>
			<outerBoundaryIs>
				<LinearRing>
					<tessellate>1</tessellate>
					<coordinates>
						-74.10085195995055,4.647376975745043,0 -74.10084101682024,4.647359983116751,0 -74.10078996717614,4.647391593958091,0 -74.10080072206695,4.647409254289297,0 -74.10085195995055,4.647376975745043,0 
					</coordinates>
				</LinearRing>
			</outerBoundaryIs>
		</Polygon>
	</Placemark>
	<Placemark>
		<name>s3</name>
		<LookAt>
			<longitude>-74.10098214918509</longitude>
			<latitude>4.64761124280875</latitude>
			<altitude>0</altitude>
			<heading>-121.229073537773</heading>
			<tilt>0</tilt>
			<range>69.58512147351661</range>
			<gx:altitudeMode>relativeToSeaFloor</gx:altitudeMode>
		</LookAt>
		<styleUrl>#mpoly-FF0000-2-76-nodesc-normal0</styleUrl>
		<Polygon>
			<outerBoundaryIs>
				<LinearRing>
					<tessellate>1</tessellate>
					<coordinates>
						-74.1008534757117,4.647489548129627,0 -74.10086585874372,4.6475098894177,0 -74.10089980844376,4.647487666869389,0 -74.10090019179994,4.64746100208072,0 -74.1008534757117,4.647489548129627,0 
					</coordinates>
				</LinearRing>
			</outerBoundaryIs>
		</Polygon>
	</Placemark>
	<Placemark>
		<name>s3</name>
		<styleUrl>#mpoly-FF0000-2-76-nodesc-normal0</styleUrl>
		<Polygon>
			<outerBoundaryIs>
				<LinearRing>
					<tessellate>1</tessellate>
					<coordinates>
						-74.10094976586464,4.647546227897858,0 -74.10093860474521,4.647526637924916,0 -74.10089109093818,4.647556281473106,0 -74.10090279163501,4.647575501115398,0 -74.10094976586464,4.647546227897858,0 
					</coordinates>
				</LinearRing>
			</outerBoundaryIs>
		</Polygon>
	</Placemark>
	<Placemark>
		<name>s3</name>
		<styleUrl>#mpoly-FF0000-2-76-nodesc-normal01</styleUrl>
		<Polygon>
			<outerBoundaryIs>
				<LinearRing>
					<tessellate>1</tessellate>
					<coordinates>
						-74.10096818968853,4.64735270209401,0 -74.10097381587251,4.647343834035066,0 -74.1009715600503,4.647336083420898,0 -74.10096492073187,4.647332199959529,0 -74.10095659315459,4.64733359514403,0 -74.1009498032635,4.647339529452622,0 -74.1009511670769,4.647347815244086,0 -74.10095897101857,4.647354631999807,0 -74.10096818968853,4.64735270209401,0 
					</coordinates>
				</LinearRing>
			</outerBoundaryIs>
		</Polygon>
	</Placemark>
	<Placemark>
		<name>s3</name>
		<styleUrl>#mpoly-FF0000-2-76-nodesc-normal01</styleUrl>
		<Polygon>
			<outerBoundaryIs>
				<LinearRing>
					<tessellate>1</tessellate>
					<coordinates>
						-74.10088361532795,4.647408059262167,0 -74.10088820688954,4.647398627479257,0 -74.10088575914557,4.647388604287768,0 -74.10087772294676,4.647384383380261,0 -74.10086821006684,4.647387720735866,0 -74.10086193251226,4.647396364222937,0 -74.10086401942628,4.647404782741095,0 -74.10087383587135,4.647410944934249,0 -74.10088361532795,4.647408059262167,0 
					</coordinates>
				</LinearRing>
			</outerBoundaryIs>
		</Polygon>
	</Placemark>
	<Placemark>
		<name>s3</name>
		<styleUrl>#mpoly-FF0000-2-76-nodesc-normal0</styleUrl>
		<Polygon>
			<outerBoundaryIs>
				<LinearRing>
					<tessellate>1</tessellate>
					<coordinates>
						-74.10089080922074,4.647445576253388,0 -74.10088096887127,4.647428156037386,0 -74.10083262424541,4.64745776995015,0 -74.1008431258221,4.647476256983199,0 -74.10089080922074,4.647445576253388,0 
					</coordinates>
				</LinearRing>
			</outerBoundaryIs>
		</Polygon>
	</Placemark>
	<Placemark>
		<name>s3</name>
		<styleUrl>#mpoly-FF0000-2-76-nodesc-normal0</styleUrl>
		<Polygon>
			<outerBoundaryIs>
				<LinearRing>
					<tessellate>1</tessellate>
					<coordinates>
						-74.10098451344835,4.647434855799819,0 -74.1009736486767,4.647416977079002,0 -74.10092256205155,4.647448088759107,0 -74.10094774873161,4.647458415404008,0 -74.10098451344835,4.647434855799819,0 
					</coordinates>
				</LinearRing>
			</outerBoundaryIs>
		</Polygon>
	</Placemark>
	<Placemark>
		<name>s3</name>
		<styleUrl>#line-FF0000-2-nodesc0</styleUrl>
		<LineString>
			<tessellate>1</tessellate>
			<coordinates>
				-74.102164,4.64738,0 -74.102071,4.647434,0 
			</coordinates>
		</LineString>
	</Placemark>
	<Placemark>
		<name>s3</name>
		<styleUrl>#line-FF0000-2-nodesc0</styleUrl>
		<LineString>
			<tessellate>1</tessellate>
			<coordinates>
				-74.102138,4.647339,0 -74.102047,4.647394,0 
			</coordinates>
		</LineString>
	</Placemark>
	<Placemark>
		<name>s3</name>
		<styleUrl>#line-FF0000-2-nodesc0</styleUrl>
		<LineString>
			<tessellate>1</tessellate>
			<coordinates>
				-74.102113,4.647298,0 -74.10202200000001,4.647354,0 
			</coordinates>
		</LineString>
	</Placemark>
	<Placemark>
		<name>s3</name>
		<styleUrl>#line-FF0000-2-nodesc0</styleUrl>
		<LineString>
			<tessellate>1</tessellate>
			<coordinates>
				-74.102085,4.647255,0 -74.10199400000001,4.647316,0 
			</coordinates>
		</LineString>
	</Placemark>
	<Placemark>
		<name>s3</name>
		<styleUrl>#line-FF0000-2-nodesc0</styleUrl>
		<LineString>
			<tessellate>1</tessellate>
			<coordinates>
				-74.10206100000001,4.647216,0 -74.10197100000001,4.647273,0 
			</coordinates>
		</LineString>
	</Placemark>
	<Placemark>
		<name>s3</name>
		<styleUrl>#line-FF0000-2-nodesc0</styleUrl>
		<LineString>
			<tessellate>1</tessellate>
			<coordinates>
				-74.10203900000001,4.647178,0 -74.10194199999999,4.64723,0 
			</coordinates>
		</LineString>
	</Placemark>
	<Placemark>
		<name>s3</name>
		<styleUrl>#line-FF0000-2-nodesc0</styleUrl>
		<LineString>
			<tessellate>1</tessellate>
			<coordinates>
				-74.101933,4.646836,0 -74.101758,4.646946,0 
			</coordinates>
		</LineString>
	</Placemark>
	<Placemark>
		<name>s3</name>
		<styleUrl>#line-FF0000-2-nodesc0</styleUrl>
		<LineString>
			<tessellate>1</tessellate>
			<coordinates>
				-74.10166,4.646788,0 -74.101604,4.646701,0 
			</coordinates>
		</LineString>
	</Placemark>
	<Placemark>
		<name>s3</name>
		<styleUrl>#line-FF0000-2-nodesc0</styleUrl>
		<LineString>
			<tessellate>1</tessellate>
			<coordinates>
				-74.10157700000001,4.646839,0 -74.101522,4.646752,0 
			</coordinates>
		</LineString>
	</Placemark>
	<Placemark>
		<name>s3</name>
		<styleUrl>#line-FF0000-2-nodesc0</styleUrl>
		<LineString>
			<tessellate>1</tessellate>
			<coordinates>
				-74.101501,4.64689,0 -74.10144200000001,4.646805,0 
			</coordinates>
		</LineString>
	</Placemark>
	<Placemark>
		<name>s3</name>
		<styleUrl>#line-FF0000-2-nodesc0</styleUrl>
		<LineString>
			<tessellate>1</tessellate>
			<coordinates>
				-74.10152600000001,4.647125,0 -74.101434,4.646983,0 
			</coordinates>
		</LineString>
	</Placemark>
	<Placemark>
		<name>s3</name>
		<styleUrl>#line-FF0000-2-nodesc0</styleUrl>
		<LineString>
			<tessellate>1</tessellate>
			<coordinates>
				-74.101484,4.647152,0 -74.10139100000001,4.647008,0 
			</coordinates>
		</LineString>
	</Placemark>
	<Placemark>
		<name>s3</name>
		<styleUrl>#line-FF0000-2-nodesc0</styleUrl>
		<LineString>
			<tessellate>1</tessellate>
			<coordinates>
				-74.101443,4.647178,0 -74.10135099999999,4.647032,0 
			</coordinates>
		</LineString>
	</Placemark>
	<Placemark>
		<name>s3</name>
		<styleUrl>#line-FF0000-2-nodesc0</styleUrl>
		<LineString>
			<tessellate>1</tessellate>
			<coordinates>
				-74.10138000000001,4.647222,0 -74.101286,4.647072,0 
			</coordinates>
		</LineString>
	</Placemark>
	<Placemark>
		<name>s3</name>
		<styleUrl>#line-FF0000-2-nodesc</styleUrl>
		<LineString>
			<tessellate>1</tessellate>
			<coordinates>
				-74.10131731204814,4.647261191533513,0 -74.101275,4.647195,0 
			</coordinates>
		</LineString>
	</Placemark>
	<Placemark>
		<name>s3</name>
		<styleUrl>#line-FF0000-2-nodesc</styleUrl>
		<LineString>
			<tessellate>1</tessellate>
			<coordinates>
				-74.10126011915369,4.647274843536045,0 -74.10122787582698,4.647223759468602,0 
			</coordinates>
		</LineString>
	</Placemark>
	<Placemark>
		<name>s3</name>
		<styleUrl>#line-FF0000-2-nodesc</styleUrl>
		<LineString>
			<tessellate>1</tessellate>
			<coordinates>
				-74.10114021321274,4.64734732164089,0 -74.10110899999999,4.647298,0 
			</coordinates>
		</LineString>
	</Placemark>
	<Placemark>
		<name>s3</name>
		<styleUrl>#line-FF0000-2-nodesc0</styleUrl>
		<LineString>
			<tessellate>1</tessellate>
			<coordinates>
				-74.10122200000001,4.647297,0 -74.101192,4.647249,0 
			</coordinates>
		</LineString>
	</Placemark>
	<Placemark>
		<name>s3</name>
		<styleUrl>#line-FF0000-2-nodesc</styleUrl>
		<LineString>
			<tessellate>1</tessellate>
			<coordinates>
				-74.10109870064535,4.647372610892339,0 -74.1010676024289,4.647322503004488,0 
			</coordinates>
		</LineString>
	</Placemark>
	<Placemark>
		<name>s3</name>
		<styleUrl>#line-FF0000-2-nodesc</styleUrl>
		<LineString>
			<tessellate>1</tessellate>
			<coordinates>
				-74.10101892248058,4.647354742094084,0 -74.10106804768505,4.647322230442797,0 
			</coordinates>
		</LineString>
	</Placemark>
	<Placemark>
		<name>s3</name>
		<styleUrl>#line-FF0000-2-nodesc0</styleUrl>
		<LineString>
			<tessellate>1</tessellate>
			<coordinates>
				-74.10099700000001,4.647319,0 -74.101044,4.647286,0 
			</coordinates>
		</LineString>
	</Placemark>
	<Placemark>
		<name>s3</name>
		<styleUrl>#line-FF0000-2-nodesc0</styleUrl>
		<LineString>
			<tessellate>1</tessellate>
			<coordinates>
				-74.100894,4.647238,0 -74.10092,4.647281,0 
			</coordinates>
		</LineString>
	</Placemark>
	<Placemark>
		<name>s3</name>
		<styleUrl>#line-FF0000-2-nodesc0</styleUrl>
		<LineString>
			<tessellate>1</tessellate>
			<coordinates>
				-74.10085100000001,4.647265,0 -74.10087799999999,4.64731,0 
			</coordinates>
		</LineString>
	</Placemark>
	<Placemark>
		<name>s3</name>
		<styleUrl>#line-FF0000-2-nodesc0</styleUrl>
		<LineString>
			<tessellate>1</tessellate>
			<coordinates>
				-74.100809,4.647293,0 -74.10083400000001,4.647337,0 
			</coordinates>
		</LineString>
	</Placemark>
	<Placemark>
		<name>s3</name>
		<styleUrl>#line-FF0000-2-nodesc0</styleUrl>
		<LineString>
			<tessellate>1</tessellate>
			<coordinates>
				-74.10076599999999,4.647318,0 -74.100793,4.647363,0 
			</coordinates>
		</LineString>
	</Placemark>
	<Placemark>
		<name>s3</name>
		<styleUrl>#msn_ylw-pushpin0</styleUrl>
		<LineString>
			<tessellate>1</tessellate>
			<coordinates>
				-74.100799,4.647445,0 -74.10074410016129,4.647480520400117,0 
			</coordinates>
		</LineString>
	</Placemark>
	<Placemark>
		<name>s3</name>
		<styleUrl>#msn_ylw-pushpin0</styleUrl>
		<LineString>
			<tessellate>1</tessellate>
			<coordinates>
				-74.10077090690363,4.647522334591849,0 -74.100826,4.647486,0 
			</coordinates>
		</LineString>
	</Placemark>
	<Placemark>
		<name>s3</name>
		<styleUrl>#msn_ylw-pushpin0</styleUrl>
		<LineString>
			<tessellate>1</tessellate>
			<coordinates>
				-74.100853,4.64753,0 -74.10079932895675,4.647565750296996,0 
			</coordinates>
		</LineString>
	</Placemark>
	<Placemark>
		<name>s3</name>
		<styleUrl>#msn_ylw-pushpin0</styleUrl>
		<LineString>
			<tessellate>1</tessellate>
			<coordinates>
				-74.100954,4.64769,0 -74.10090232251294,4.647723546238641,0 
			</coordinates>
		</LineString>
	</Placemark>
	<Placemark>
		<name>s3</name>
		<styleUrl>#msn_ylw-pushpin0</styleUrl>
		<LineString>
			<tessellate>1</tessellate>
			<coordinates>
				-74.10092830926537,4.647763105210157,0 -74.100981,4.647729,0 
			</coordinates>
		</LineString>
	</Placemark>
	<Placemark>
		<name>s3</name>
		<styleUrl>#msn_ylw-pushpin0</styleUrl>
		<LineString>
			<tessellate>1</tessellate>
			<coordinates>
				-74.10100640182745,4.647767222414995,0 -74.10095138218014,4.647800977335121,0 -74.10074516805089,4.647484900764266,0 
			</coordinates>
		</LineString>
	</Placemark>
	<Placemark>
		<name>s3</name>
		<styleUrl>#line-FF0000-2-nodesc0</styleUrl>
		<LineString>
			<tessellate>1</tessellate>
			<coordinates>
				-74.10108200000001,4.647809,0 -74.10111000000001,4.647854,0 
			</coordinates>
		</LineString>
	</Placemark>
	<Placemark>
		<name>s3</name>
		<styleUrl>#line-FF0000-2-nodesc0</styleUrl>
		<LineString>
			<tessellate>1</tessellate>
			<coordinates>
				-74.101124,4.647781,0 -74.10115500000001,4.647828,0 
			</coordinates>
		</LineString>
	</Placemark>
	<Placemark>
		<name>s3</name>
		<styleUrl>#line-FF0000-2-nodesc0</styleUrl>
		<LineString>
			<tessellate>1</tessellate>
			<coordinates>
				-74.101164,4.647755,0 -74.101195,4.647801,0 
			</coordinates>
		</LineString>
	</Placemark>
	<Placemark>
		<name>s3</name>
		<styleUrl>#line-FF0000-2-nodesc0</styleUrl>
		<LineString>
			<tessellate>1</tessellate>
			<coordinates>
				-74.101209,4.647729,0 -74.101236,4.647773,0 
			</coordinates>
		</LineString>
	</Placemark>
	<Placemark>
		<name>s3</name>
		<styleUrl>#line-FF0000-2-nodesc0</styleUrl>
		<LineString>
			<tessellate>1</tessellate>
			<coordinates>
				-74.101208,4.647644,0 -74.10125600000001,4.647614,0 
			</coordinates>
		</LineString>
	</Placemark>
	<Placemark>
		<name>s3</name>
		<styleUrl>#line-FF0000-2-nodesc</styleUrl>
		<LineString>
			<tessellate>1</tessellate>
			<coordinates>
				-74.10118270739726,4.647605903881153,0 -74.10123051821203,4.647575672779315,0 -74.10120055380342,4.647528815781397,0 
			</coordinates>
		</LineString>
	</Placemark>
	<Placemark>
		<name>s3</name>
		<styleUrl>#line-FF0000-2-nodesc0</styleUrl>
		<LineString>
			<tessellate>1</tessellate>
			<coordinates>
				-74.10123900000001,4.647504,0 -74.10127,4.64755,0 
			</coordinates>
		</LineString>
	</Placemark>
	<Placemark>
		<name>s3</name>
		<styleUrl>#line-FF0000-2-nodesc0</styleUrl>
		<LineString>
			<tessellate>1</tessellate>
			<coordinates>
				-74.10127900000001,4.647476,0 -74.101311,4.647524,0 
			</coordinates>
		</LineString>
	</Placemark>
	<Placemark>
		<name>s3</name>
		<styleUrl>#line-FF0000-2-nodesc0</styleUrl>
		<LineString>
			<tessellate>1</tessellate>
			<coordinates>
				-74.10132400000001,4.647449,0 -74.101355,4.647499,0 
			</coordinates>
		</LineString>
	</Placemark>
	<Placemark>
		<name>s3</name>
		<styleUrl>#line-FF0000-2-nodesc0</styleUrl>
		<LineString>
			<tessellate>1</tessellate>
			<coordinates>
				-74.101361,4.647425,0 -74.101366,4.647422,0 -74.10139700000001,4.64747,0 
			</coordinates>
		</LineString>
	</Placemark>
	<Placemark>
		<name>s3</name>
		<styleUrl>#line-FF0000-2-nodesc0</styleUrl>
		<LineString>
			<tessellate>1</tessellate>
			<coordinates>
				-74.101461,4.647483,0 -74.101512,4.647448,0 -74.101449,4.647352,0 
			</coordinates>
		</LineString>
	</Placemark>
	<Placemark>
		<name>s3</name>
		<styleUrl>#line-FF0000-2-nodesc0</styleUrl>
		<LineString>
			<tessellate>1</tessellate>
			<coordinates>
				-74.10145799999999,4.647443,0 -74.10149199999999,4.647422,0 
			</coordinates>
		</LineString>
	</Placemark>
	<Placemark>
		<name>s3</name>
		<styleUrl>#line-FF0000-2-nodesc0</styleUrl>
		<LineString>
			<tessellate>1</tessellate>
			<coordinates>
				-74.1015,4.647427,0 -74.10174600000001,4.647271,0 
			</coordinates>
		</LineString>
	</Placemark>
	<Placemark>
		<name>s3</name>
		<styleUrl>#line-FF0000-2-nodesc0</styleUrl>
		<LineString>
			<tessellate>1</tessellate>
			<coordinates>
				-74.101544,4.647282,0 -74.101598,4.647366,0 
			</coordinates>
		</LineString>
	</Placemark>
	<Placemark>
		<name>s3</name>
		<styleUrl>#line-FF0000-2-nodesc0</styleUrl>
		<LineString>
			<tessellate>1</tessellate>
			<coordinates>
				-74.10171699999999,4.647433,0 -74.10181400000001,4.647375,0 
			</coordinates>
		</LineString>
	</Placemark>
	<Placemark>
		<name>s3</name>
		<styleUrl>#line-FF0000-2-nodesc0</styleUrl>
		<LineString>
			<tessellate>1</tessellate>
			<coordinates>
				-74.101744,4.647473,0 -74.101839,4.647417,0 
			</coordinates>
		</LineString>
	</Placemark>
	<Placemark>
		<name>s3</name>
		<styleUrl>#line-FF0000-2-nodesc0</styleUrl>
		<LineString>
			<tessellate>1</tessellate>
			<coordinates>
				-74.103241,4.646316,0 -74.10325899999999,4.646304,0 
			</coordinates>
		</LineString>
	</Placemark>
	<Placemark>
		<name>s3</name>
		<styleUrl>#line-FF0000-2-nodesc0</styleUrl>
		<LineString>
			<tessellate>1</tessellate>
			<coordinates>
				-74.101772,4.647514,0 -74.101865,4.647454,0 
			</coordinates>
		</LineString>
	</Placemark>
	<Placemark>
		<name>s3</name>
		<styleUrl>#line-FF0000-2-nodesc0</styleUrl>
		<LineString>
			<tessellate>1</tessellate>
			<coordinates>
				-74.101799,4.647556,0 -74.101893,4.647494,0 
			</coordinates>
		</LineString>
	</Placemark>
	<Placemark>
		<name>s3</name>
		<styleUrl>#line-FF0000-2-nodesc0</styleUrl>
		<LineString>
			<tessellate>1</tessellate>
			<coordinates>
				-74.10326499999999,4.646261,0 -74.10329400000001,4.646308,0 -74.10327,4.646322,0 -74.10324,4.646276,0 
			</coordinates>
		</LineString>
	</Placemark>
	<Placemark>
		<name>s3</name>
		<styleUrl>#line-FF0000-2-nodesc0</styleUrl>
		<LineString>
			<tessellate>1</tessellate>
			<coordinates>
				-74.101905,4.647717,0 -74.10199400000001,4.64766,0 
			</coordinates>
		</LineString>
	</Placemark>
	<Placemark>
		<name>s3</name>
		<styleUrl>#line-FF0000-2-nodesc0</styleUrl>
		<LineString>
			<tessellate>1</tessellate>
			<coordinates>
				-74.10226900000001,4.647544,0 -74.10218,4.647601,0 
			</coordinates>
		</LineString>
	</Placemark>
	<Placemark>
		<name>s3</name>
		<styleUrl>#line-FF0000-2-nodesc0</styleUrl>
		<LineString>
			<tessellate>1</tessellate>
			<coordinates>
				-74.102295,4.647582,0 -74.102206,4.647639,0 
			</coordinates>
		</LineString>
	</Placemark>
	<Placemark>
		<name>s3</name>
		<styleUrl>#line-FF0000-2-nodesc0</styleUrl>
		<LineString>
			<tessellate>1</tessellate>
			<coordinates>
				-74.10225699999999,4.64772,0 -74.10239300000001,4.647633,0 
			</coordinates>
		</LineString>
	</Placemark>
	<Placemark>
		<name>s3</name>
		<styleUrl>#line-FF0000-2-nodesc0</styleUrl>
		<LineString>
			<tessellate>1</tessellate>
			<coordinates>
				-74.101514,4.647566,0 -74.101439,4.647444,0 -74.10127,4.647551,0 
			</coordinates>
		</LineString>
	</Placemark>
	<Placemark>
		<name>s3</name>
		<styleUrl>#line-FF0000-2-nodesc0</styleUrl>
		<LineString>
			<tessellate>1</tessellate>
			<coordinates>
				-74.101916,4.647538,0 -74.10182399999999,4.647594,0 -74.10171800000001,4.647433,0 -74.101514,4.647567,0 
			</coordinates>
		</LineString>
	</Placemark>
	<Placemark>
		<name>s3</name>
		<styleUrl>#msn_ylw-pushpin0</styleUrl>
		<LineString>
			<tessellate>1</tessellate>
			<coordinates>
				-74.101967,4.647618,0 -74.101876,4.647677,0 -74.10197257818103,4.647825276384395,0 
			</coordinates>
		</LineString>
	</Placemark>
</Document>
</kml>
